<svg width="12" height="12" viewBox="0 0 12 12" fill="none" xmlns="http://www.w3.org/2000/svg">
<path d="M5.99977 8.5C5.74677 8.5 5.50477 8.3835 5.33677 8.179L3.23027 5.63C2.97827 5.3245 2.92777 4.891 3.10077 4.5245C3.25327 4.201 3.55677 4 3.89327 4H8.10627C8.44277 4 8.74627 4.201 8.89877 4.5245C9.07177 4.891 9.02127 5.3245 8.76977 5.6295L6.66277 8.179C6.49477 8.3835 6.25277 8.5 5.99977 8.5Z" fill="#212121"/>
<mask id="mask0_998_28447" style="mask-type:alpha" maskUnits="userSpaceOnUse" x="2" y="4" width="8" height="5">
<path d="M5.99977 8.5C5.74677 8.5 5.50477 8.3835 5.33677 8.179L3.23027 5.63C2.97827 5.3245 2.92777 4.891 3.10077 4.5245C3.25327 4.201 3.55677 4 3.89327 4H8.10627C8.44277 4 8.74627 4.201 8.89877 4.5245C9.07177 4.891 9.02127 5.3245 8.76977 5.6295L6.66277 8.179C6.49477 8.3835 6.25277 8.5 5.99977 8.5Z" fill="white"/>
</mask>
<g mask="url(#mask0_998_28447)">
</g>
</svg>
