<svg width="25" height="24" viewBox="0 0 25 24" fill="none" xmlns="http://www.w3.org/2000/svg">
<path d="M11.9697 1.71967C12.2626 1.42678 12.7374 1.42678 13.0303 1.71967L16.0303 4.71967C16.3232 5.01256 16.3232 5.48744 16.0303 5.78033C15.7374 6.07322 15.2626 6.07322 14.9697 5.78033L13.25 4.06066L13.25 7.5H11.75V4.06066L10.0303 5.78033C9.73744 6.07322 9.26256 6.07322 8.96967 5.78033C8.67678 5.48744 8.67678 5.01256 8.96967 4.71967L11.9697 1.71967Z" fill="#000"/>
<path d="M11.75 7.5L11.75 15C11.75 15.4142 12.0858 15.75 12.5 15.75C12.9142 15.75 13.25 15.4142 13.25 15V7.5H17C18.6569 7.5 20 8.84315 20 10.5V19.5C20 21.1569 18.6569 22.5 17 22.5H8C6.34315 22.5 5 21.1569 5 19.5V10.5C5 8.84315 6.34315 7.5 8 7.5H11.75Z" fill="#000"/>
</svg>
