<svg width="21" height="25" viewBox="0 0 21 25" fill="none" xmlns="http://www.w3.org/2000/svg">
<path d="M20.3257 6.10882C20.2624 6.03162 20.1734 5.97976 20.075 5.96272C19.9767 5.94568 19.8755 5.96459 19.7899 6.01601L14.0819 9.34461L15.4657 5.64476C15.4988 5.55647 15.5016 5.45962 15.4735 5.36958C15.4454 5.27954 15.3881 5.20144 15.3106 5.14768C15.2331 5.09391 15.1399 5.06755 15.0457 5.07277C14.9515 5.07798 14.8617 5.11448 14.7907 5.17648L11.2975 8.20132L10.2766 1.05054C10.2613 0.952263 10.2117 0.862564 10.1366 0.7973C10.0616 0.732037 9.96585 0.695411 9.86639 0.693897C9.76693 0.692382 9.67014 0.726076 9.59312 0.789023C9.5161 0.851971 9.46382 0.940119 9.44551 1.03789L8.17566 8.38273L6.12535 6.52226C6.06259 6.46693 5.98487 6.43138 5.90197 6.42008C5.81906 6.40878 5.73467 6.42224 5.65939 6.45875C5.58411 6.49527 5.5213 6.55323 5.47886 6.62533C5.43641 6.69744 5.41623 6.78048 5.42084 6.86403L5.61488 9.80445L1.18941 7.52632C1.10332 7.48237 1.00473 7.46935 0.910176 7.48942C0.815619 7.5095 0.730835 7.56147 0.670028 7.63661C0.609221 7.71175 0.576085 7.80551 0.576172 7.90218C0.576259 7.99884 0.609564 8.09254 0.670506 8.16757L4.18894 12.5171L1.80535 13.5423C1.73223 13.5754 1.66997 13.6285 1.62573 13.6955C1.58149 13.7625 1.55708 13.8406 1.55532 13.9209C1.55356 14.0011 1.57451 14.0802 1.61576 14.1491C1.65701 14.218 1.71688 14.2738 1.78847 14.3101L4.25644 15.5082L2.53097 17.5585C2.47915 17.6236 2.44745 17.7023 2.43977 17.7852C2.43209 17.868 2.44876 17.9513 2.48774 18.0247C2.52672 18.0982 2.58631 18.1587 2.65919 18.1988C2.73207 18.2389 2.81508 18.2568 2.89801 18.2504L5.47566 17.993L2.48879 23.3804C2.44285 23.4667 2.42819 23.5663 2.4473 23.6621C2.46641 23.758 2.51812 23.8444 2.59364 23.9065C2.66917 23.9686 2.76386 24.0026 2.86163 24.0028C2.95941 24.0031 3.05426 23.9695 3.13007 23.9077L8.23472 19.5793L9.51723 24.009C9.54308 24.0988 9.5981 24.1774 9.67361 24.2324C9.74911 24.2874 9.8408 24.3157 9.93417 24.3128C10.0275 24.3099 10.1173 24.2759 10.1892 24.2163C10.2612 24.1567 10.3112 24.0749 10.3314 23.9837L11.3397 19.5034L16.5668 23.7896C16.6436 23.8506 16.7392 23.8829 16.8373 23.881C16.9353 23.879 17.0296 23.843 17.104 23.7791C17.1784 23.7152 17.2282 23.6274 17.2449 23.5308C17.2615 23.4341 17.244 23.3347 17.1953 23.2496L14.0397 17.9762L16.7566 18.2799C16.8396 18.2878 16.9231 18.2711 16.9968 18.232C17.0705 18.1929 17.131 18.133 17.171 18.0598C17.2109 17.9866 17.2286 17.9033 17.2216 17.8202C17.2147 17.7371 17.1836 17.6578 17.132 17.5923L15.183 15.2298L17.478 14.0949C17.5489 14.0593 17.6083 14.0044 17.6494 13.9365C17.6905 13.8687 17.7116 13.7906 17.7103 13.7113C17.7089 13.6319 17.6853 13.5546 17.6419 13.4881C17.5986 13.4217 17.5374 13.3688 17.4653 13.3355L15.4193 12.4074L20.3257 6.65304C20.3891 6.57653 20.4237 6.48029 20.4237 6.38093C20.4237 6.28158 20.3891 6.18534 20.3257 6.10882Z" fill="black"/>
</svg>
