<svg width="22" height="22" viewBox="0 0 22 22" fill="none" xmlns="http://www.w3.org/2000/svg">
<path fill-rule="evenodd" clip-rule="evenodd" d="M20 11C20 6.05 15.95 2 11 2C6.05 2 2 6.05 2 11C2 15.95 6.05 20 11 20C15.95 20 20 15.95 20 11ZM0.5 11C0.5 5.225 5.225 0.5 11 0.5C16.775 0.5 21.5 5.225 21.5 11C21.5 16.775 16.775 21.5 11 21.5C5.225 21.5 0.5 16.775 0.5 11ZM11.75 10.25H17V11.75H11.75V17H10.25V11.75H5V10.25H10.25V5H11.75V10.25Z" fill="#000"/>
</svg>
