<svg width="46" height="48" viewBox="0 0 46 48" fill="none" xmlns="http://www.w3.org/2000/svg">
<path d="M45.0717 10.5911L23.2778 0.0698906C23.0846 -0.0232969 22.8596 -0.0232969 22.6665 0.0698906L0.872504 10.5911C0.629504 10.7084 0.475098 10.9545 0.475098 11.2243V36.7757C0.475098 37.0455 0.629504 37.2916 0.872504 37.4089L22.6664 47.9301C22.7629 47.9767 22.8676 48 22.9721 48C23.0766 48 23.1812 47.9767 23.2778 47.9301L45.0717 37.4089C45.3147 37.2916 45.4691 37.0455 45.4691 36.7757V11.2244C45.4691 10.9544 45.3146 10.7085 45.0717 10.5911ZM22.9721 1.48392L43.1487 11.2243L37.2999 14.0478C37.2629 14.0196 37.2238 13.9935 37.1808 13.9728L17.1413 4.29877L22.9721 1.48392ZM15.5534 5.09377L35.7006 14.82L31.5742 16.812L11.4353 7.0898L15.5534 5.09377ZM36.172 16.1538V23.5175L32.3177 25.3783V18.0146L36.172 16.1538ZM44.0628 36.3345L23.6752 46.1766V22.1867L28.5383 19.839C28.888 19.6702 29.0346 19.2499 28.8658 18.9001C28.6969 18.5505 28.2767 18.4037 27.9269 18.5727L22.9721 20.9647L21.0225 20.0235C20.6727 19.8544 20.2524 20.0012 20.0836 20.3509C19.9147 20.7006 20.0613 21.121 20.411 21.2898L22.269 22.1867V46.1766L1.88135 36.3344V12.3445L17.4063 19.8393C17.5049 19.887 17.609 19.9095 17.7115 19.9095C17.9729 19.9095 18.2239 19.763 18.3452 19.5119C18.514 19.1622 18.3674 18.7418 18.0177 18.573L2.7955 11.2243L9.78035 7.85227L30.9017 18.0488C30.9048 18.0531 30.9082 18.057 30.9114 18.0612V26.4986C30.9114 26.7405 31.0358 26.9655 31.2408 27.0942C31.3546 27.1656 31.4844 27.2017 31.6146 27.2017C31.7189 27.2017 31.8234 27.1785 31.9202 27.1318L37.1808 24.5922C37.4238 24.4749 37.5783 24.2289 37.5783 23.959V15.4751L44.0628 12.3446V36.3345Z" />
</svg>
