<svg width="103" height="34" viewBox="0 0 103 34" fill="none" xmlns="http://www.w3.org/2000/svg">
<path d="M16.2122 33C16.484 32.9987 16.7556 32.983 17.0258 32.953C18.7864 32.7556 20.3158 31.9998 21.5642 30.697C22.0756 30.1682 22.5113 29.5116 22.8718 28.7563V28.7502C22.8847 28.7368 22.8945 28.7208 22.9004 28.7032C22.9413 28.5871 22.9822 28.4653 23.0226 28.3488C23.1636 27.9479 23.3075 27.5296 23.3831 27.0877C23.5226 26.2991 23.5401 25.4936 23.4353 24.6996C23.3224 23.7249 22.9929 22.7879 22.4708 21.9571C21.3724 20.2181 19.8266 19.1037 17.8803 18.6388C16.9706 18.4179 16.0255 18.3843 15.1025 18.5401C13.6149 18.7845 12.3191 19.4233 11.2559 20.4404C10.2388 21.411 9.5592 22.5498 9.22785 23.8108C8.98955 24.7114 8.91388 25.5423 9.0013 26.3489C9.13479 27.6099 9.50656 28.6909 10.1345 29.6554C11.0407 31.0617 12.3074 32.0496 13.888 32.6014C14.6342 32.8662 15.4204 33.001 16.2122 33Z" stroke-linecap="round" stroke-linejoin="round"/>
<path d="M16.3055 31.5685C17.6713 31.5685 18.9145 31.1154 20.0129 30.2087C21.1226 29.2908 21.8201 28.0589 22.0236 26.6526C22.2967 24.7759 21.7853 23.1196 20.5013 21.7368C19.7051 20.8767 18.688 20.2958 17.4734 20.0053C17.16 19.9296 16.8286 19.9113 16.5146 19.9005C16.3638 19.8948 16.2124 19.8892 16.0672 19.8774C16.0503 19.8724 16.0326 19.8703 16.015 19.8713L15.8467 19.8948C15.3236 19.9588 14.7892 20.0283 14.2779 20.2262C12.2498 21.0219 10.9944 22.4691 10.553 24.5202C10.1634 26.2982 10.5469 27.931 11.6919 29.3721C12.6389 30.5575 13.8652 31.2724 15.3528 31.4933C15.6677 31.5445 15.9864 31.5696 16.3055 31.5685V31.5685Z" stroke-linecap="round" stroke-linejoin="round"/>
<path d="M16.2122 24.8062C16.1154 24.8135 16.0198 24.8329 15.9278 24.864C15.7147 24.9436 15.5401 25.1017 15.4395 25.3058C15.3535 25.4635 15.3229 25.6456 15.3525 25.8228C15.3763 26.0116 15.4586 26.1882 15.5878 26.3279C15.717 26.4675 15.8867 26.5632 16.0731 26.6016C16.2346 26.6319 16.4012 26.6177 16.5553 26.5607C16.666 26.522 16.7678 26.4615 16.8547 26.3827C16.9416 26.3039 17.0118 26.2084 17.061 26.102C17.1274 25.9626 17.1573 25.8086 17.148 25.6545C17.1376 25.4648 17.0662 25.2835 16.9445 25.1375C16.8225 24.9826 16.6497 24.8757 16.4566 24.8358C16.3753 24.8179 16.294 24.8179 16.2122 24.8066" stroke-linecap="round" stroke-linejoin="round"/>
<path d="M12.2436 21.7148L15.6023 25.0735" stroke-linecap="round" stroke-linejoin="round"/>
<path d="M16.8979 26.3682L20.2449 29.7151" stroke-linecap="round" stroke-linejoin="round"/>
<path d="M12.1973 29.7685L15.6199 26.3516" stroke-linecap="round" stroke-linejoin="round"/>
<path d="M16.9157 25.0494L20.2979 21.6733" stroke-linecap="round" stroke-linejoin="round"/>
<path d="M79.5913 32.4189C79.8632 32.4177 80.1348 32.402 80.4049 32.3719C82.1656 32.1745 83.695 31.4188 84.9433 30.1159C85.4547 29.5871 85.8904 28.9305 86.2509 28.1752V28.1691C86.2638 28.1558 86.2736 28.1397 86.2796 28.1221C86.3205 28.006 86.3614 27.8843 86.4018 27.7677C86.5428 27.3668 86.6866 26.9485 86.7623 26.5067C86.9017 25.718 86.9193 24.9126 86.8145 24.1186C86.7016 23.1439 86.3721 22.2068 85.85 21.3761C84.7516 19.637 83.2057 18.5226 81.2594 18.0578C80.3498 17.8368 79.4047 17.8033 78.4816 17.9591C76.9941 18.2035 75.6983 18.8422 74.6351 19.8593C73.618 20.8299 72.9384 21.9687 72.607 23.2298C72.3687 24.1303 72.293 24.9613 72.3805 25.7678C72.5139 27.0289 72.8857 28.1099 73.5136 29.0743C74.4198 30.4806 75.6865 31.4686 77.2671 32.0204C78.0134 32.2851 78.7995 32.4199 79.5913 32.4189Z" stroke-linecap="round" stroke-linejoin="round"/>
<path d="M79.6846 30.9874C81.0505 30.9874 82.2936 30.5343 83.3921 29.6277C84.5018 28.7097 85.1992 27.4778 85.4028 26.0716C85.6758 24.1948 85.1645 22.5385 83.8804 21.1557C83.0842 20.2956 82.0671 19.7147 80.8526 19.4242C80.5391 19.3486 80.2077 19.3302 79.8938 19.3194C79.7429 19.3138 79.5916 19.3081 79.4463 19.2964C79.4294 19.2914 79.4118 19.2893 79.3942 19.2903L79.2259 19.3138C78.7028 19.3777 78.1684 19.4473 77.657 19.6451C75.6289 20.4409 74.3735 21.888 73.9322 23.9391C73.5425 25.7172 73.9261 27.35 75.071 28.791C76.0181 29.9764 77.2443 30.6913 78.7319 30.9122C79.0469 30.9634 79.3655 30.9886 79.6846 30.9874V30.9874Z" stroke-linecap="round" stroke-linejoin="round"/>
<path d="M79.5916 24.2251C79.4948 24.2325 79.3992 24.2519 79.3072 24.2829C79.0941 24.3626 78.9194 24.5206 78.8189 24.7247C78.7329 24.8825 78.7022 25.0645 78.7319 25.2417C78.7557 25.4305 78.838 25.6071 78.9672 25.7468C79.0964 25.8865 79.2661 25.9822 79.4525 26.0205C79.6139 26.0508 79.7806 26.0367 79.9347 25.9796C80.0454 25.941 80.1472 25.8804 80.2341 25.8016C80.321 25.7228 80.3912 25.6274 80.4404 25.5209C80.5068 25.3815 80.5367 25.2276 80.5274 25.0735C80.517 24.8837 80.4456 24.7024 80.3239 24.5565C80.2019 24.4015 80.0291 24.2946 79.836 24.2547C79.7547 24.2369 79.6734 24.2369 79.5916 24.2256" stroke-linecap="round" stroke-linejoin="round"/>
<path d="M75.6225 21.1338L78.9812 24.4925" stroke-linecap="round" stroke-linejoin="round"/>
<path d="M80.2773 25.7871L83.6243 29.134" stroke-linecap="round" stroke-linejoin="round"/>
<path d="M75.5762 29.1875L78.9988 25.7705" stroke-linecap="round" stroke-linejoin="round"/>
<path d="M80.2946 24.4684L83.6768 21.0923" stroke-linecap="round" stroke-linejoin="round"/>
<path d="M101.312 20.1118C101.312 20.1118 97.3882 20.3404 94.8552 20.3821" stroke-linecap="round" stroke-linejoin="round"/>
<path d="M101.851 20.5063C101.851 20.5063 98.0939 20.7137 96.1008 20.7966" stroke-linecap="round" stroke-linejoin="round"/>
<path d="M99.4797 10.4971C99.4797 10.4971 100.103 15.035 100.232 16.5497" stroke-linecap="round" stroke-linejoin="round"/>
<path d="M33.4634 10.9846C36.4529 7.73223 46.8541 2.62133 46.8541 2.62133C46.8541 2.62133 47.6638 2.55905 51.8367 2.24764C56.0096 1.93623 63.7949 2.30992 63.7949 2.40334C63.7949 2.49677 62.155 10.0336 62.155 10.0336L33.4634 10.9846Z" stroke-linecap="round" stroke-linejoin="round"/>
<path d="M56.5764 13.8141L56.5826 14.1006C56.5843 14.1988 56.6052 14.2956 56.6443 14.3857C56.6833 14.4758 56.7398 14.5572 56.8103 14.6255C56.8809 14.6937 56.9642 14.7474 57.0555 14.7835C57.1468 14.8195 57.2443 14.8372 57.3425 14.8356L60.8303 14.767C60.9285 14.7654 61.0253 14.7445 61.1154 14.7054C61.2054 14.6663 61.2869 14.6099 61.3552 14.5394C61.4234 14.4688 61.4771 14.3855 61.5131 14.2942C61.5492 14.2029 61.5669 14.1054 61.5652 14.0072L61.559 13.7207" stroke-linecap="round" stroke-linejoin="round"/>
<path d="M57.4422 14.319L60.6934 14.2567C60.815 14.2533 60.9306 14.2026 61.0155 14.1154C61.1004 14.0282 61.1479 13.9113 61.148 13.7896C61.1446 13.668 61.0939 13.5524 61.0067 13.4675C60.9195 13.3826 60.8026 13.3351 60.6809 13.335L57.4298 13.3972C57.3081 13.4006 57.1925 13.4513 57.1077 13.5386C57.0228 13.6258 56.9752 13.7426 56.9751 13.8644V13.8644C56.9752 13.9251 56.9875 13.9852 57.0112 14.0411C57.0349 14.097 57.0695 14.1476 57.113 14.19C57.1565 14.2323 57.2081 14.2655 57.2646 14.2877C57.3211 14.3099 57.3815 14.3205 57.4422 14.319V14.319Z" stroke-linecap="round" stroke-linejoin="round"/>
<path d="M60.7493 13.7383L57.3486 13.8006" stroke-linecap="round" stroke-linejoin="round"/>
<path d="M39.4153 9.56294C39.9011 9.54426 40.9225 9.69996 41.2588 9.2453C41.5703 8.83424 41.1841 8.2737 41.8879 8.23633" stroke-linecap="round" stroke-linejoin="round"/>
<path d="M40.198 10.3721L41.1447 10.3409C41.511 10.3265 41.8567 10.1678 42.1064 9.89942C42.3561 9.63105 42.4895 9.27482 42.4775 8.90845L42.4713 8.81503C42.4569 8.44875 42.2982 8.10305 42.0298 7.85335C41.7614 7.60365 41.4052 7.47022 41.0388 7.48219L40.0921 7.51333C39.7258 7.52777 39.3801 7.68649 39.1304 7.95485C38.8807 8.22322 38.7473 8.57945 38.7593 8.94582L38.7655 9.03924C38.782 9.4048 38.9414 9.74926 39.2093 9.99852C39.4772 10.2478 39.8322 10.3819 40.198 10.3721V10.3721Z" stroke-linecap="round" stroke-linejoin="round"/>
<path d="M40.1733 10.372L40.1796 10.4841C40.1938 10.5823 40.1853 10.6824 40.1547 10.7768L37.5699 10.8702H37.5469C37.5016 10.7793 37.4781 10.6791 37.4784 10.5775L37.4659 10.2038C37.4558 9.87547 37.5758 9.55645 37.7998 9.31616C38.0237 9.07586 38.3335 8.93376 38.6617 8.92078L38.7676 8.91455" stroke-linecap="round" stroke-linejoin="round"/>
<path d="M3.33749 24.8758C3.2939 24.8011 3.22538 24.7326 3.21916 24.6578C3.19424 24.4648 3.19424 24.2655 3.18179 24.0662C3.15687 23.6987 3.12573 23.3375 3.10082 22.9762C2.61502 23.0385 2.16658 23.0946 1.72438 23.1444C1.69651 23.0697 1.67565 22.9925 1.6621 22.9139C1.55622 22.1852 1.45656 21.4628 1.35068 20.7341C1.18881 19.5991 1.16998 18.4482 1.29463 17.3085C1.30577 17.1784 1.32659 17.0494 1.35691 16.9224L1.34446 16.9722C1.30709 17.24 1.51885 17.4642 1.63718 17.6822C1.86763 18.1307 1.66833 18.0684 2.11053 18.1805C2.6337 18.3113 3.43714 18.33 3.97277 18.2677C5.43641 18.1057 7.04952 17.4393 8.35122 16.7729C8.8744 16.5051 9.08616 16.256 9.08616 16.0317V16.0691C9.7588 16.6608 10.7802 17.0532 12.0944 17.2712L12.0321 17.3023C10.8565 17.9413 9.84411 18.8428 9.0737 19.9368C7.39207 22.3534 7.3983 25.2246 7.3983 28.0398V28.0273C7.0349 28.0311 6.67199 27.9998 6.31459 27.9339C5.3679 27.7221 4.40875 27.6536 3.44337 27.6163C3.13819 27.6038 2.86415 27.5602 2.66484 27.3298C2.26001 26.8502 1.86763 26.3582 1.48148 25.8848C1.56867 25.7665 1.61227 25.6855 1.66833 25.617C1.96728 25.262 2.22887 24.8696 2.75827 24.8385C2.91397 24.826 3.06968 24.8198 3.22538 24.8073H2.78941C2.77695 24.745 2.7645 24.6828 2.75827 24.6205C2.72713 24.1035 2.69598 23.5804 2.66484 23.0634" stroke-linecap="round" stroke-linejoin="round"/>
<path d="M1.38814 16.9042C1.35077 17.172 1.56253 17.3963 1.68086 17.6143C1.91131 18.0627 1.712 18.0004 2.15421 18.1125C2.67738 18.2433 3.48082 18.262 4.01645 18.1997C5.48009 18.0378 7.0932 17.3713 8.3949 16.7049C10.1637 15.8018 8.33262 15.1292 7.23022 14.824C6.0344 14.4939 4.81367 14.525 3.5867 14.6185L3.55556 14.4814C3.19433 14.687 2.80195 14.8551 2.47185 15.1043C1.85525 15.5776 1.5127 16.2316 1.38191 16.979C1.36945 17.0662 1.40059 17.0226 1.38814 17.1098" stroke-linecap="round" stroke-linejoin="round"/>
<path d="M3.65543 15.4404C3.18831 15.7643 2.95164 16.356 2.83953 16.8667C2.76479 17.203 2.75234 17.6826 2.70874 18.0251" stroke-linecap="round" stroke-linejoin="round"/>
<path d="M4.61426 15.1538C5.84122 16.0071 5.10006 17.0223 4.97549 17.6451" stroke-linecap="round" stroke-linejoin="round"/>
<path d="M6.9126 15.2349C7.46068 15.2349 8.015 15.6397 8.56308 15.6397" stroke-linecap="round" stroke-linejoin="round"/>
<path d="M4.73905 15.7451H4.10128C4.06391 15.8635 4.01409 16.424 4.01409 16.5236C4.00163 16.8351 4.01409 17.1465 4.00786 17.4579C4.00163 17.6759 4.09505 17.788 4.31927 17.7693C4.50612 17.7568 4.69297 17.7506 4.87981 17.7382" stroke-linecap="round" stroke-linejoin="round"/>
<path d="M6.91229 15.2349C6.83755 15.6397 6.90606 16.275 7.28598 16.4556C7.39809 16.5054 7.51643 16.5428 7.62854 16.5802" stroke-linecap="round" stroke-linejoin="round"/>
<path d="M3.54907 14.5303C3.62381 14.7358 3.58644 15.2278 3.66118 15.4396" stroke-linecap="round" stroke-linejoin="round"/>
<path d="M5.01318 17.7378C5.13775 17.7565 5.26231 17.7814 5.38688 17.8001" stroke-linecap="round" stroke-linejoin="round"/>
<path d="M3.56801 14.5494C3.64275 14.7549 3.52441 14.4311 3.59915 14.6366C4.82612 14.5432 6.04685 14.512 7.24267 14.8421C8.03989 15.0601 9.21079 15.4712 9.14228 16.0255C9.81493 16.6172 10.8364 17.0096 12.1505 17.2276C13.4446 16.5122 14.9078 16.1594 16.3857 16.2061C22.178 16.4179 24.9807 21.2074 25.454 26.3146L25.479 26.2772L25.5537 26.3146C27.4844 26.2647 29.4152 26.2834 31.346 26.2834V26.271C30.9909 25.7478 31.1155 24.035 31.0719 23.5056C30.9847 22.3908 30.9162 21.2759 30.8788 20.1548C30.8415 19.0337 30.7916 17.9064 30.8352 16.7853C30.8726 15.8387 30.8788 14.4747 31.1529 13.5716C31.3522 12.9238 32.411 11.6221 33.0151 11.2796C33.1148 11.2235 33.2269 11.1239 33.339 11.0865C33.476 10.9619 33.6068 10.8374 33.7438 10.7128L33.7625 10.719C33.6629 10.526 33.5819 10.3142 33.4573 10.1211C33.3328 9.92806 33.3141 9.94052 33.1708 9.76613L31.7508 9.74121C30.9909 9.78481 30.2373 9.82218 29.4775 9.872C28.5619 9.92806 27.6526 9.99657 26.7371 10.0588C26.052 10.1024 25.3668 10.1398 24.6817 10.1834C24.0589 10.227 23.4361 10.2831 22.8133 10.3391C22.2714 10.3889 21.7358 10.4325 21.1939 10.4948C20.5213 10.5696 19.8424 10.663 19.1697 10.744C18.6092 10.8125 18.0487 10.8623 17.4881 10.9308C16.6847 11.0367 15.8875 11.155 15.0903 11.2734C14.511 11.3606 13.9256 11.4477 13.3463 11.5536C12.2439 11.7592 11.1415 11.9647 10.0454 12.2138C9.11737 12.4194 8.18936 12.6685 7.27381 12.9301C6.19633 13.2353 5.12507 13.5903 4.12855 14.1134C3.92302 14.2193 3.72372 14.3314 3.52441 14.4435L3.56801 14.5494Z" stroke-linecap="round" stroke-linejoin="round"/>
<path d="M33.3389 11.0866L32.992 11.294C32.3879 11.6365 31.3291 12.9382 31.1298 13.586C30.8557 14.4953 30.8495 15.853 30.8121 16.7997C30.7685 17.9208 30.8184 19.0481 30.8557 20.1692C30.8931 21.2903 30.9616 22.4052 31.0488 23.52C31.0924 24.0805 30.9492 25.9615 31.3851 26.3663C31.709 26.6715 34.001 26.3663 34.4806 26.3601C35.5643 26.3352 36.648 26.2853 37.7317 26.2542C39.9365 26.1857 42.1475 26.1234 44.3523 26.0487C48.1765 25.9241 55.8247 25.6189 55.8247 25.6189C55.8247 25.6189 60.3508 25.9964 61.7627 21.3875C63.1747 16.7786 62.9667 12.7508 62.6758 11.7125C62.3849 10.6743 62.0947 10.0732 62.0947 10.0732L33.4486 10.995L33.3389 11.0866Z" stroke-linecap="round" stroke-linejoin="round"/>
<path d="M63.7344 2.44336C63.7344 2.44336 67.5647 2.50564 69.9626 5.15264C72.3605 7.79964 72.6096 9.38784 72.6096 9.38784C72.6096 9.38784 68.5301 9.7441 65.9454 9.89295C63.3607 10.0418 62.0945 10.0736 62.0945 10.0736" stroke-linecap="round" stroke-linejoin="round"/>
<path d="M97.5248 9.85505L72.6118 9.38793C72.6118 9.38793 83.8226 9.42032 87.8399 8.23633L99.8915 9.01423L99.5178 10.509C99.5178 10.509 98.3344 10.5127 97.4313 11.0247C96.5283 11.5367 96.248 11.6924 96.248 11.6924C96.248 11.6924 97.2134 10.2923 97.3691 10.073L97.5248 9.85442" stroke-linecap="round" stroke-linejoin="round"/>
<path d="M101.955 17.1514L90.2463 17.9405" stroke-linecap="round" stroke-linejoin="round"/>
<path d="M27.175 10.0733C27.175 10.0733 36.7273 4.4467 40.6498 2.82736C44.5724 1.20802 45.4861 1 45.4861 1L46.5243 1.70628C46.5243 1.70628 46.8563 1.95541 46.794 2.66107" stroke-linecap="round" stroke-linejoin="round"/>
<path d="M45.9466 1.9246C45.9466 1.9246 45.6974 1.61319 44.927 1.17285" stroke-linecap="round" stroke-linejoin="round"/>
<path d="M45.091 2.27397C44.6877 1.97374 44.2376 1.74225 43.7588 1.58887" stroke-linecap="round" stroke-linejoin="round"/>
<path d="M46.7939 2.66066C46.7939 2.66066 37.5867 7.11385 33.7476 10.6901C33.6621 10.4948 33.5652 10.3047 33.4574 10.1208C33.3731 9.99387 33.2772 9.87502 33.1709 9.76583C33.1709 9.76583 36.4507 7.08769 39.9597 4.99126C43.4687 2.89484 46.5878 1.77002 46.5878 1.77002C46.5878 1.77002 46.7553 1.85099 46.7939 2.66066Z" stroke-linecap="round" stroke-linejoin="round"/>
<path d="M8.51904 15.0316C8.51904 15.0316 17.7611 12.3765 92.5106 11.6914" stroke-linecap="round" stroke-linejoin="round"/>
<path d="M70.6936 27.1827C70.7272 26.454 70.7677 25.7334 70.815 25.0813C70.815 25.0097 70.815 24.9381 70.815 24.8664C70.815 24.7236 70.8186 24.5816 70.8256 24.4404L59.5245 24.5843L59.5718 24.5519C57.8192 25.7845 55.828 25.6188 55.828 25.6188C55.828 25.6188 48.1797 25.924 44.3556 26.0486C42.1508 26.1233 39.9398 26.1856 37.735 26.2541C36.6513 26.2852 35.5676 26.3351 34.4838 26.36C34.0043 26.3662 31.7123 26.6714 31.3884 26.3662C31.3591 26.3377 31.3334 26.3057 31.3118 26.2709L25.4822 26.2771C25.4822 26.2771 25.5588 27.0912 25.5744 27.4026C25.5899 27.714 25.5744 28.0565 25.5744 28.0565L70.6936 27.1827Z" stroke-linecap="round" stroke-linejoin="round"/>
<path d="M101.81 18.8547C101.997 18.3077 102.047 17.7233 101.955 17.1526L100.232 16.5503H97.803L83.592 17.2466C85.0312 18.0263 86.2215 19.1958 87.0263 20.6211C87.57 21.5217 88.3965 23.3758 88.9265 26.8381L98.9241 25.5426C98.9241 25.5426 99.6715 24.9615 100.585 23.3839C101.499 21.8063 101.851 20.4772 101.851 20.4772L101.312 20.0829C101.312 20.0829 101.499 19.7684 101.81 18.8547Z" stroke-linecap="round" stroke-linejoin="round"/>
<path d="M96.869 15.0244C95.7479 14.9932 94.7825 15.0555 95.094 13.9033C95.4054 12.7511 96.2462 11.6923 96.2462 11.6923C96.2462 11.6923 97.2116 10.2922 97.3673 10.0729L97.523 9.85432L72.61 9.38721C72.61 9.38721 68.5305 9.74346 65.9458 9.89232C63.3611 10.0412 62.0949 10.0729 62.0949 10.0729C62.0949 10.0729 62.3857 10.6746 62.676 11.7122C62.9662 12.7498 63.1742 16.7783 61.7629 21.3872C61.279 22.966 60.4295 23.96 59.5208 24.5841L70.8213 24.4402C70.8938 22.9784 71.3355 21.5588 72.1052 20.3138C72.8748 19.0689 73.9473 18.0392 75.2226 17.3209C76.4978 16.6025 77.9343 16.219 79.3979 16.206C80.8615 16.193 82.3045 16.551 83.5923 17.2466L97.8032 16.5534V15.0325C97.7596 15.0393 97.5697 15.0437 96.869 15.0244Z" stroke-linecap="round" stroke-linejoin="round"/>
<path d="M97.803 15.0244V15.0328C97.83 15.0289 97.803 15.0244 97.803 15.0244Z" stroke-linecap="round" stroke-linejoin="round"/>
<path opacity="0.3" d="M97.803 15.0244V15.0328C97.83 15.0289 97.803 15.0244 97.803 15.0244Z" fill="white"/>
<path d="M87.0812 8.33097C87.0812 8.33097 86.4023 7.9934 85.3061 7.80157C83.5255 7.49015 80.6661 7.64586 80.6661 7.64586C80.6661 7.64586 80.6792 8.26869 79.5269 8.54646C78.3747 8.82424 77.0226 8.82923 77.0226 8.82923L76.5417 9.32748" stroke-linecap="round" stroke-linejoin="round"/>
<path d="M78.6992 7.35137C78.6688 7.57375 78.5691 7.78089 78.4143 7.94335C78.2594 8.10581 78.0573 8.21532 77.8366 8.25633C77.4629 8.32609 77.04 8.39896 76.7928 8.42138C76.2789 8.4681 76.1544 8.34353 76.1077 7.72071C76.0609 7.09788 76.2166 5.61868 76.4502 5.07371C76.6838 4.52874 76.964 4.54431 77.6803 4.55988C78.3965 4.57545 78.7391 4.59102 78.8325 5.35398C78.8886 5.80988 78.7889 6.70488 78.6992 7.35137Z" stroke-linecap="round" stroke-linejoin="round"/>
<path d="M100.055 14.9315L97.803 15.0324L97.8092 10.8433" stroke-linecap="round" stroke-linejoin="round"/>
<path d="M95.6325 12.629C95.5702 12.7436 99.7089 12.208 99.7089 12.208" stroke-linecap="round" stroke-linejoin="round"/>
</svg>
