<svg width="71" height="34" viewBox="0 0 71 34" fill="none" xmlns="http://www.w3.org/2000/svg">
<path d="M11.972 33.0001C11.7678 32.9994 11.5637 32.9878 11.3607 32.9656C10.0374 32.8167 8.88887 32.249 7.94977 31.2708C7.56557 30.8734 7.23781 30.3799 6.96696 29.8141V29.8096C6.95736 29.7997 6.94992 29.7879 6.94511 29.775C6.91461 29.6876 6.88411 29.5956 6.85407 29.5082C6.74937 29.2068 6.64012 28.8928 6.58094 28.5604C6.47596 27.9677 6.46276 27.3623 6.54179 26.7655C6.62642 26.033 6.87405 25.3287 7.26649 24.7043C8.09225 23.3983 9.25395 22.5598 10.717 22.2107C11.4005 22.0444 12.1106 22.0192 12.8042 22.1365C13.9222 22.3185 14.8982 22.8002 15.6957 23.5645C16.4595 24.2928 16.9703 25.15 17.2197 26.0977C17.3986 26.7746 17.4555 27.3987 17.39 28.006C17.2894 28.9537 17.0099 29.7658 16.5383 30.491C15.8776 31.5294 14.8818 32.3107 13.716 32.7052C13.1557 32.9022 12.5659 33.002 11.972 33.0001Z" stroke-linecap="round" stroke-linejoin="round"/>
<path d="M11.9019 31.9255C10.8759 31.9255 9.94131 31.585 9.116 30.9036C8.29337 30.2351 7.75358 29.2805 7.60469 28.231C7.39939 26.8199 7.78359 25.5757 8.7491 24.5365C9.34725 23.8901 10.1116 23.4531 11.0252 23.235C11.2622 23.185 11.5036 23.1586 11.7458 23.1563C11.8596 23.1517 11.9734 23.1476 12.0822 23.1385C12.0949 23.1351 12.1081 23.1338 12.1213 23.1344L12.2479 23.1517C12.6412 23.2 13.0427 23.2523 13.4273 23.4007C14.9514 23.9989 15.8946 25.085 16.2264 26.6282C16.5191 27.9647 16.231 29.192 15.3706 30.2749C14.6587 31.1658 13.7373 31.7029 12.6193 31.8682C12.3822 31.9069 12.1422 31.9261 11.9019 31.9255V31.9255Z" stroke-linecap="round" stroke-linejoin="round"/>
<path d="M11.972 26.8423C12.0449 26.8484 12.1168 26.8637 12.1859 26.8878C12.3461 26.9475 12.4774 27.0662 12.5528 27.2197C12.6176 27.3382 12.6407 27.4751 12.6184 27.6084C12.6004 27.7503 12.5385 27.883 12.4413 27.9879C12.3442 28.0929 12.2167 28.1649 12.0767 28.1938C11.9547 28.2168 11.8288 28.2061 11.7125 28.1629C11.6293 28.1339 11.5527 28.0884 11.4874 28.0292C11.4221 27.97 11.3694 27.8983 11.3324 27.8183C11.2825 27.7135 11.26 27.5977 11.2668 27.4819C11.2746 27.3392 11.3283 27.2029 11.4198 27.0931C11.5114 26.9763 11.6414 26.8957 11.7867 26.8655C11.8477 26.8523 11.9091 26.8523 11.9688 26.8437" stroke-linecap="round" stroke-linejoin="round"/>
<path d="M14.955 24.519L12.4304 27.0432" stroke-linecap="round" stroke-linejoin="round"/>
<path d="M11.4567 28.0171L8.94116 30.5326" stroke-linecap="round" stroke-linejoin="round"/>
<path d="M14.9897 30.5718L12.4177 28.0039" stroke-linecap="round" stroke-linejoin="round"/>
<path d="M11.4436 27.0257L8.9021 24.4883" stroke-linecap="round" stroke-linejoin="round"/>
<path d="M60.2379 33.0002C60.0337 32.9994 59.8296 32.9878 59.6266 32.9656C58.3033 32.8167 57.1548 32.2491 56.2157 31.2708C55.8315 30.8734 55.5037 30.3799 55.2333 29.8141V29.8096C55.2234 29.7999 55.2159 29.788 55.2115 29.775C55.1805 29.6876 55.15 29.5956 55.1204 29.5082C55.0157 29.2069 54.9065 28.8928 54.8473 28.5605C54.7423 27.9677 54.7291 27.3623 54.8081 26.7655C54.8928 26.033 55.1404 25.3287 55.5328 24.7043C56.3586 23.3983 57.5203 22.5598 58.9834 22.2107C59.667 22.0444 60.3773 22.0192 61.071 22.1365C62.189 22.3186 63.165 22.8002 63.962 23.5645C64.7264 24.2928 65.2366 25.15 65.4861 26.0977C65.665 26.7746 65.7219 27.3987 65.6564 28.006C65.5558 28.9538 65.2763 29.7659 64.8046 30.491C64.1218 31.548 63.1713 32.2905 61.9823 32.7052C61.4219 32.9022 60.832 33.0019 60.2379 33.0002V33.0002Z" stroke-linecap="round" stroke-linejoin="round"/>
<path d="M60.1706 31.9255C59.1441 31.9255 58.2096 31.585 57.3843 30.9036C56.5617 30.2351 56.0219 29.2805 55.873 28.231C55.6677 26.8198 56.0523 25.5757 57.0174 24.5365C57.6155 23.8901 58.3798 23.4531 59.2934 23.235C59.5305 23.185 59.7718 23.1586 60.0141 23.1563C60.1279 23.1517 60.2417 23.1476 60.3505 23.1385C60.3632 23.1352 60.3764 23.1338 60.3896 23.1344L60.5162 23.1517C60.9095 23.2 61.3114 23.2523 61.6956 23.4007C63.2197 23.9989 64.1629 25.085 64.4952 26.6282C64.7874 27.9647 64.4993 29.192 63.6389 30.2749C62.927 31.1658 62.0056 31.7029 60.8876 31.8682C60.6506 31.9069 60.4108 31.9261 60.1706 31.9255V31.9255Z" stroke-linecap="round" stroke-linejoin="round"/>
<path d="M60.2378 26.8423C60.3108 26.8484 60.3827 26.8637 60.4518 26.8878C60.612 26.9475 60.7433 27.0662 60.8187 27.2197C60.8835 27.3382 60.9066 27.4751 60.8842 27.6084C60.8662 27.7503 60.8043 27.883 60.7072 27.9879C60.6101 28.0929 60.4826 28.1649 60.3425 28.1938C60.2206 28.2168 60.0947 28.2061 59.9784 28.1629C59.8951 28.1339 59.8186 28.0884 59.7533 28.0292C59.688 27.97 59.6353 27.8983 59.5983 27.8183C59.5484 27.7135 59.5258 27.5977 59.5327 27.4819C59.5407 27.3392 59.5944 27.203 59.6857 27.0931C59.7773 26.9763 59.9072 26.8957 60.0526 26.8655C60.1136 26.8523 60.175 26.8523 60.2346 26.8437" stroke-linecap="round" stroke-linejoin="round"/>
<path d="M63.2209 24.519L60.6968 27.0432" stroke-linecap="round" stroke-linejoin="round"/>
<path d="M59.7226 28.0171L57.207 30.5326" stroke-linecap="round" stroke-linejoin="round"/>
<path d="M63.256 30.5718L60.6836 28.0039" stroke-linecap="round" stroke-linejoin="round"/>
<path d="M59.7094 27.0257L57.168 24.4883" stroke-linecap="round" stroke-linejoin="round"/>
<path d="M43.4785 2.72266V12.6309" stroke-linecap="round" stroke-linejoin="round"/>
<path d="M22.0474 12.773C22.6332 12.7493 23.865 12.9491 24.2706 12.3633C24.6462 11.8348 24.1796 11.1142 25.0295 11.0659" stroke-linecap="round" stroke-linejoin="round"/>
<path d="M22.9938 13.8131L24.1355 13.7731C25.0518 13.7412 25.7743 12.9082 25.7428 11.9313L25.7356 11.8111C25.7055 10.8342 24.9244 10.0653 24.008 10.0977L22.8663 10.1377C21.9495 10.1696 21.2276 11.0026 21.2585 11.9795L21.2663 12.0997C21.3036 13.0766 22.0847 13.8454 22.9938 13.8131Z" stroke-linecap="round" stroke-linejoin="round"/>
<path d="M22.9636 13.8131L22.9713 13.9574C22.9786 14.1395 22.9864 14.1281 22.9413 14.2884L19.824 14.5569L19.7939 14.4541C19.7338 14.2938 19.7188 14.2615 19.7111 14.0776L19.6961 13.5969C19.666 12.7161 20.3197 11.9795 21.1382 11.9472L21.2661 11.9395" stroke-linecap="round" stroke-linejoin="round"/>
<path d="M22.9768 9.45871C22.9768 9.45871 26.6995 6.0751 32.2227 4.55788C37.7458 3.04065 43.4783 3.35884 43.4783 3.35884" stroke-linecap="round" stroke-linejoin="round"/>
<path d="M21.9255 9.36768L22.9771 9.48921V10.0965" stroke-linecap="round" stroke-linejoin="round"/>
<path d="M57.1902 10.5612L47.3034 11.3774C47.1271 11.392 46.9496 11.3698 46.7823 11.3124C46.615 11.2549 46.4614 11.1634 46.3311 11.0437C46.2009 10.924 46.0969 10.7785 46.0257 10.6166C45.9544 10.4547 45.9175 10.2797 45.9172 10.1028V4.91339C45.9172 4.74003 45.9524 4.56847 46.0206 4.4091C46.0889 4.24973 46.1888 4.10586 46.3142 3.98622C46.4397 3.86659 46.5881 3.77367 46.7506 3.71308C46.913 3.6525 47.086 3.62552 47.2592 3.63378L56.4377 4.0717C56.7273 4.08563 57.0036 4.19733 57.2216 4.38856C57.4395 4.57979 57.5862 4.83926 57.6376 5.1246L58.3455 9.06038C58.3766 9.2359 58.3708 9.41598 58.3284 9.58911C58.286 9.76225 58.2079 9.92463 58.0992 10.0659C57.9904 10.2071 57.8534 10.3241 57.6969 10.4094C57.5404 10.4947 57.3678 10.5464 57.1902 10.5612V10.5612Z" stroke-linecap="round" stroke-linejoin="round"/>
<path d="M1.82983 19.9592C1.82983 19.9592 2.49718 17.7742 3.34706 17.1064C4.19695 16.4386 6.09337 15.9229 6.09337 15.9229L6.70062 16.8333L6.12387 17.4405C5.54711 18.0473 3.63521 19.7772 3.27104 19.9592C2.90687 20.1413 1.82983 19.9592 1.82983 19.9592V19.9592Z" stroke-linecap="round" stroke-linejoin="round"/>
<path d="M2.02142 19.4029C2.02142 19.4029 1.78426 18.7151 1.82978 18.2294C1.86301 17.8716 2.41518 17.0699 2.70379 16.6721C2.81348 16.5208 2.95956 16.3996 3.1285 16.3197L11.1007 12.5542H14.3782" stroke-linecap="round" stroke-linejoin="round"/>
<path d="M16.9885 11.4921C16.9885 11.4921 24.8787 6.14602 30.675 3.6296C36.4712 1.11318 51.1596 1.99311 54.225 2.2362C57.2904 2.47928 61.7816 2.87349 62.9346 3.81396C64.0877 4.75444 66.5764 9.97483 67.2137 12.7972C67.5778 14.41 67.7836 15.5175 67.8928 16.1703C67.9077 16.2593 67.903 16.3505 67.8791 16.4375C67.8551 16.5245 67.8125 16.6053 67.7542 16.6742C67.6959 16.7431 67.6233 16.7984 67.5414 16.8364C67.4595 16.8744 67.3704 16.8941 67.2801 16.8941H67.0621L67.7599 20.6874" stroke-linecap="round" stroke-linejoin="round"/>
<path d="M12.9521 12.554C12.9521 12.554 23.4221 5.99896 29.613 3.02504C35.8039 0.0511307 50.9475 1.14364 54.7713 1.44681C57.5435 1.66713 60.9217 2.38137 62.5705 2.75783C62.8916 2.83123 63.1948 2.96812 63.4622 3.16043C63.7297 3.35274 63.956 3.59661 64.1278 3.87766C65.0619 5.40263 66.7475 8.62873 67.4868 11.1279C69.004 16.2567 68.7614 20.6873 68.7614 20.6873" stroke-linecap="round" stroke-linejoin="round"/>
<path d="M31.5652 4.12504L29.2705 3.19092" stroke-linecap="round" stroke-linejoin="round"/>
<path d="M29.5825 4.12467L28.5242 3.56201" stroke-linecap="round" stroke-linejoin="round"/>
<path d="M59.4372 9.21589C59.4372 9.21589 58.7544 5.84731 58.5268 4.70927C58.2992 3.57124 57.5253 3.34363 56.6149 3.25259C56.06 3.19705 49.8377 2.66809 43.4556 2.72727V12.6309C50.7909 12.0391 57.188 11.5288 57.9805 11.4929C59.938 11.4009 59.4372 9.21589 59.4372 9.21589Z" stroke-linecap="round" stroke-linejoin="round"/>
<path d="M32.2228 4.5576C26.6997 6.07483 22.9769 9.45843 22.9769 9.45843L22.9414 14.2883L42.8921 12.6905V3.33899C41.2961 3.3044 36.6911 3.32989 32.2228 4.5576Z" stroke-linecap="round" stroke-linejoin="round"/>
<path d="M18.5664 12.8579L18.8191 13.6663C18.8812 13.8658 18.9919 14.0468 19.1413 14.1928C19.2907 14.3389 19.474 14.4455 19.6749 14.503L19.8715 14.559C19.8715 14.559 19.3558 17.5029 19.5679 20.7199C19.78 23.9369 20.1447 26.0914 20.1447 26.0914C20.1447 26.0914 20.1447 27.0237 20.7515 27.0278C21.3583 27.0319 21.6014 27.0278 21.6014 27.0278C21.6014 27.0278 41.4487 27.0451 43.057 27.0451C44.6652 27.0451 44.5441 25.5333 44.5441 25.5333L44.6957 16.4409C44.271 13.3755 43.4557 12.633 43.4557 12.633V2.72754C39.3684 2.76578 35.2164 3.04619 32.4432 3.84464C25.3419 5.8931 19.1737 11.5605 18.7185 11.9474C18.2633 12.3344 18.5437 12.8579 18.5437 12.8579L18.7963 13.6663C18.8584 13.8658 18.9691 14.0468 19.1185 14.1928C19.2679 14.3389 19.4513 14.4455 19.6521 14.503L19.8488 14.559" stroke-linecap="round" stroke-linejoin="round"/>
<path d="M42.8918 12.6905L43.4554 12.6309" stroke-linecap="round" stroke-linejoin="round"/>
<path d="M39.0642 16.1821L39.0688 16.3915C39.0699 16.4632 39.0853 16.534 39.1138 16.5998C39.1424 16.6656 39.1836 16.7252 39.2352 16.7751C39.2867 16.825 39.3476 16.8642 39.4144 16.8905C39.4811 16.9169 39.5524 16.9298 39.6241 16.9286L42.1733 16.8785C42.2451 16.8773 42.3159 16.862 42.3817 16.8335C42.4475 16.8049 42.5071 16.7637 42.5569 16.7121C42.6068 16.6606 42.6461 16.5997 42.6724 16.5329C42.6987 16.4662 42.7117 16.3949 42.7105 16.3232L42.7059 16.1138" stroke-linecap="round" stroke-linejoin="round"/>
<path d="M39.6969 16.5513L42.0731 16.5058C42.162 16.5033 42.2465 16.4662 42.3085 16.4025C42.3706 16.3387 42.4053 16.2533 42.4054 16.1643C42.4029 16.0754 42.3659 15.991 42.3021 15.9289C42.2384 15.8669 42.1529 15.8321 42.064 15.832L39.6878 15.8776C39.5989 15.88 39.5144 15.9171 39.4524 15.9808C39.3903 16.0446 39.3556 16.13 39.3555 16.219V16.219C39.3556 16.2633 39.3645 16.3073 39.3819 16.3481C39.3992 16.389 39.4245 16.426 39.4563 16.4569C39.4881 16.4879 39.5257 16.5122 39.5671 16.5284C39.6084 16.5446 39.6525 16.5524 39.6969 16.5513V16.5513Z" stroke-linecap="round" stroke-linejoin="round"/>
<path d="M42.1141 16.1274L39.6287 16.173" stroke-linecap="round" stroke-linejoin="round"/>
<path d="M63.5037 3.19092C63.5037 3.19092 62.0548 3.70759 62.7376 5.2098C63.4204 6.712 65.4234 10.6724 65.4234 15.1335C65.4234 18.1056 63.9521 20.5692 63.2966 21.5187" stroke-linecap="round" stroke-linejoin="round"/>
<path d="M1.29867 22.9634H1.82399C1.95429 22.9634 2.08331 22.989 2.20368 23.0389C2.32406 23.0888 2.43342 23.1619 2.52554 23.2541C2.61765 23.3462 2.69071 23.4556 2.74053 23.576C2.79035 23.6964 2.81596 23.8254 2.8159 23.9557V26.5386C2.81596 26.6689 2.79035 26.798 2.74053 26.9184C2.69071 27.0387 2.61765 27.1481 2.52554 27.2403C2.43342 27.3325 2.32406 27.4056 2.20368 27.4554C2.08331 27.5053 1.95429 27.531 1.82399 27.531H0.60083" stroke-linecap="round" stroke-linejoin="round"/>
<path d="M62.9874 13.814H61.0532C60.5001 13.814 60.0518 14.2623 60.0518 14.8154V15.9271C60.0518 16.4802 60.5001 16.9285 61.0532 16.9285H62.9874C63.5405 16.9285 63.9889 16.4802 63.9889 15.9271V14.8154C63.9889 14.2623 63.5405 13.814 62.9874 13.814Z" stroke-linecap="round" stroke-linejoin="round"/>
<path d="M18.2384 16.531L17.1543 16.5974C16.9267 16.6113 16.7535 16.8071 16.7674 17.0347L16.7686 17.0542C16.7825 17.2818 16.9783 17.455 17.2059 17.4411L18.29 17.3748C18.5176 17.3609 18.6908 17.1651 18.6769 16.9375L18.6757 16.918C18.6618 16.6904 18.466 16.5171 18.2384 16.531Z" stroke-linecap="round" stroke-linejoin="round"/>
<path d="M13.6926 16.331L56.2155 13.2778" stroke-linecap="round" stroke-linejoin="round"/>
<path d="M7.90225 22.3058L4.49771 18.9604C3.96511 19.4302 3.4366 19.8763 3.27136 19.9587C2.90719 20.1408 1.83015 19.9587 1.83015 19.9587L0.601074 21.643V23.1343L0.673453 23.1839C0.819564 23.2843 0.939054 23.4187 1.02161 23.5756C1.10417 23.7325 1.14732 23.9071 1.14733 24.0843V26.6335C1.14728 26.887 1.05909 27.1326 0.897874 27.3282L0.737638 27.5226L0.744922 27.5408C0.916761 27.9689 1.23111 28.3246 1.63487 28.5477L1.93258 28.7116C2.13385 28.8227 2.36 28.8809 2.5899 28.8809H5.25017C5.67534 25.2169 6.87347 23.2986 7.90225 22.3058Z" stroke-linecap="round" stroke-linejoin="round"/>
<path d="M20.7514 27.0256C20.1446 27.0215 20.1446 26.0892 20.1446 26.0892C20.1446 26.0892 19.7804 23.9342 19.5678 20.7177C19.3552 17.5011 19.8714 14.5568 19.8714 14.5568L19.6748 14.5026C19.4741 14.4452 19.2909 14.3389 19.1415 14.1932C18.9921 14.0475 18.8813 13.8669 18.819 13.6678L18.5436 12.8593C18.5436 12.8593 18.4147 12.9503 17.99 12.8898C17.5653 12.8293 17.4183 12.4041 17.4183 12.4041L16.9886 11.4937L6.09347 15.9224L6.70072 16.8329L6.12397 17.4401C5.81761 17.7624 5.13433 18.402 4.50659 18.9578L7.90431 22.3041C8.80927 21.4319 9.58268 21.2748 9.58268 21.2748C10.413 20.8971 11.3153 20.7042 12.2275 20.7095C14.5336 20.7095 16.4177 21.8785 17.5594 23.6274C18.5285 25.1123 18.7753 27.4271 18.793 29.2748H21.6012V27.0256C21.6012 27.0256 21.3586 27.0297 20.7514 27.0256Z" stroke-linecap="round" stroke-linejoin="round"/>
<path d="M31.5422 4.12381C24.8273 6.36437 19.154 11.5757 18.7183 11.9462C18.2631 12.3331 18.5435 12.8566 18.5435 12.8566C18.5435 12.8566 18.4147 12.9477 17.99 12.8871C17.5653 12.8266 17.4182 12.4014 17.4182 12.4014L16.9885 11.491C16.9885 11.491 24.7372 6.241 30.5175 3.69727L31.5422 4.12381Z" stroke-linecap="round" stroke-linejoin="round"/>
<path d="M22.0474 12.773C22.6332 12.7493 23.865 12.9491 24.2706 12.3633C24.6462 11.8348 24.1796 11.1142 25.0295 11.0659" stroke-linecap="round" stroke-linejoin="round"/>
<path d="M22.9938 13.8131L24.1355 13.7731C25.0518 13.7412 25.7743 12.9082 25.7428 11.9313L25.7356 11.8111C25.7055 10.8342 24.9244 10.0653 24.008 10.0977L22.8663 10.1377C21.9495 10.1696 21.2276 11.0026 21.2585 11.9795L21.2663 12.0997C21.3036 13.0766 22.0847 13.8454 22.9938 13.8131Z" stroke-linecap="round" stroke-linejoin="round"/>
<path d="M22.9636 13.8131L22.9713 13.9574C22.9786 14.1395 22.9864 14.1281 22.9413 14.2884L19.824 14.5569L19.7939 14.4541C19.7338 14.2938 19.7188 14.2615 19.7111 14.0776L19.6961 13.5969C19.666 12.7161 20.3197 11.9795 21.1382 11.9472L21.2661 11.9395" stroke-linecap="round" stroke-linejoin="round"/>
<path d="M69.0195 20.6872H63.862L63.831 20.6694C63.6294 21.0209 63.4423 21.3067 63.2961 21.5193C64.3319 22.0894 65.1884 22.9367 65.7698 23.9661C66.1503 24.5975 66.723 25.8693 67.1095 28.2032H67.2005C68.3385 28.2032 68.5206 27.0429 68.5206 27.0429L69.2035 26.8421C69.2035 26.8421 70.0001 22.7357 70.0001 21.6659C70.0001 20.5962 69.0195 20.6872 69.0195 20.6872Z" stroke-linecap="round" stroke-linejoin="round"/>
<path d="M53.9474 26.4684C54.0476 25.4247 54.4053 24.4222 54.9885 23.5508C55.5717 22.6795 56.3621 21.9665 57.2888 21.4759C58.2155 20.9854 59.2494 20.7325 60.2979 20.7401C61.3464 20.7477 62.3766 21.0154 63.2961 21.5193C63.9516 20.5702 65.4238 18.1052 65.4233 15.1336C65.4233 10.6725 63.4204 6.71209 62.7376 5.20988C62.4235 4.51887 62.5605 4.03588 62.7999 3.71632L62.7439 3.68082C61.7356 3.06946 59.2561 2.70757 56.8576 2.46631C56.7133 2.68208 56.6154 3.25201 56.6154 3.25201C57.5258 3.34305 58.2997 3.57066 58.5273 4.70869C58.7549 5.84673 59.4377 9.21531 59.4377 9.21531C59.4377 9.21531 59.9384 11.4003 57.981 11.4914C57.1885 11.5283 50.7914 12.0376 43.4561 12.6294C43.4561 12.6294 44.2713 13.3719 44.6961 16.4373L44.5445 25.5297C44.5445 25.5297 44.5854 26.0396 44.305 26.467L53.9474 26.4684Z" stroke-linecap="round" stroke-linejoin="round"/>
<path d="M53.9206 27.229C53.9206 27.1771 53.9206 27.1247 53.9206 27.0724C53.9206 26.8684 53.9306 26.6672 53.9493 26.4688H44.3047C44.1021 26.7774 43.7315 27.0432 43.0569 27.0432C41.4486 27.0432 21.6013 27.0259 21.6013 27.0259V29.2751H53.8095C53.8387 28.5727 53.8751 27.8576 53.9206 27.229Z" stroke-linecap="round" stroke-linejoin="round"/>
</svg>
