<svg width="62" height="40" viewBox="0 0 62 40" fill="none" xmlns="http://www.w3.org/2000/svg">
<path d="M51.6667 18.6001C57.3738 18.6001 62 23.2269 62 28.9333C62 34.6403 57.3738 39.2666 51.6667 39.2666C45.9597 39.2666 41.3335 34.6403 41.3335 28.9333C41.3396 23.2294 45.9623 18.6067 51.6667 18.6001ZM51.6667 37.1999C56.2325 37.1999 59.9334 33.499 59.9334 28.9333C59.9334 24.3681 56.2325 20.6667 51.6667 20.6667C47.101 20.6667 43.4002 24.3681 43.4002 28.9333C43.4052 33.497 47.1036 37.1949 51.6667 37.1999Z" />
<path d="M51.6665 24.8C53.9491 24.8 55.7998 26.6508 55.7998 28.9333C55.7998 31.2165 53.9491 33.0666 51.6665 33.0666C49.3839 33.0666 47.5332 31.2165 47.5332 28.9333C47.5332 26.6508 49.3839 24.8 51.6665 24.8ZM51.6665 31C52.8078 31 53.7332 30.0752 53.7332 28.9333C53.7332 27.792 52.8078 26.8667 51.6665 26.8667C50.5252 26.8667 49.5999 27.792 49.5999 28.9333C49.5999 30.0752 50.5252 31 51.6665 31Z" />
<path d="M10.334 18.6001C11.5449 18.6026 12.7462 18.8196 13.8815 19.2409L14.776 17.3811C13.4839 16.8831 12.1181 16.6041 10.7341 16.5541C10.6367 16.5541 10.5418 16.54 10.4434 16.539C8.39243 16.5168 6.36816 17.0062 4.55329 17.9628C4.04924 18.2222 3.43015 18.0269 3.16627 17.5249C2.90239 17.0229 3.0921 16.4023 3.59161 16.1338C5.65372 15.0485 7.94893 14.4809 10.279 14.4804C10.2986 14.4804 10.3143 14.4693 10.334 14.4693C10.3703 14.4693 10.4041 14.4693 10.4374 14.4693C10.621 14.4693 10.8042 14.489 10.9879 14.4971C12.5959 14.5662 14.1807 14.9058 15.6762 15.5001L17.3669 11.9799C16.4264 12.2624 15.4491 12.4042 14.4673 12.4001C13.8966 12.4001 13.4339 11.938 13.4339 11.3668V3.10022C13.4339 2.52957 13.8966 2.06689 14.4673 2.06689C16.8896 1.94227 19.2363 2.9317 20.8377 4.75364L22.8373 0.586535C23.0088 0.228807 23.3706 0.00125325 23.7672 0.000244141H29.9671C30.5378 0.000244141 31.0005 0.462919 31.0005 1.03357C31.0005 1.60472 30.5378 2.06689 29.9671 2.06689H24.417L22.9291 5.16687H31.3642C34.1307 5.1704 36.6257 6.82988 37.6984 9.37989C37.8725 9.32994 38.0526 9.3032 38.2337 9.30017H54.7669C57.0495 9.30017 58.9002 11.1509 58.9002 13.4335C58.8952 14.5167 58.0546 15.4123 56.9744 15.486C58.265 15.99 59.4764 16.6788 60.5703 17.5299C61.0199 17.8816 61.0996 18.531 60.7479 18.9805C60.3962 19.4301 59.7469 19.5098 59.2968 19.1581C55.5606 16.2418 50.4883 15.71 46.2284 17.7893C41.9689 19.868 39.2666 24.1936 39.2671 28.9333V30.2946C39.3902 31.0827 39.1823 31.8865 38.6924 32.5162C38.2918 32.8961 37.7524 33.0954 37.2004 33.0666H25.8338C25.0064 33.0853 24.2066 32.7649 23.6214 32.1791C23.0361 31.5939 22.7152 30.7946 22.7339 29.9667V28.9333C22.7359 26.8869 22.2278 24.8717 21.256 23.0704C21.1879 22.9433 21.1097 22.8257 21.037 22.7016C20.1258 21.1405 18.8866 19.7959 17.4048 18.7605C17.3523 18.7242 17.3018 18.6828 17.2519 18.648C17.1313 18.5663 17.0021 18.4982 16.879 18.4215C16.7993 18.372 16.7181 18.3246 16.6373 18.2757L15.7402 20.144C20.1167 22.853 21.8262 28.3743 19.7449 33.0823C17.6641 37.7898 12.4304 40.2424 7.48121 38.8292C2.53205 37.4159 -0.617374 32.5697 0.101109 27.4727C0.820099 22.3762 5.18701 18.59 10.334 18.6001ZM19.6339 7.23352C19.6339 5.76426 17.8266 4.49531 15.5006 4.19914V10.2684C16.7589 10.1529 17.9472 9.63873 18.8932 8.80117L19.6288 7.26884C19.6288 7.25673 19.6339 7.24512 19.6339 7.23352ZM31.3642 7.23352H22.3393L19.2393 13.4335H34.77C35.5414 13.433 36.1666 12.8078 36.1671 12.0369C36.1641 9.38544 34.0157 7.23655 31.3642 7.23352ZM54.7669 11.3668H38.2337V13.4335H56.8336C56.8336 12.2922 55.9082 11.3668 54.7669 11.3668ZM24.8005 29.9667C24.7844 30.2457 24.8883 30.5176 25.0856 30.7154C25.2829 30.9127 25.5553 31.0161 25.8338 31H37.1923C37.2095 30.8194 37.2055 30.5403 37.2034 30.3204L37.2004 28.9333C37.1908 23.0104 40.8034 17.6828 46.3101 15.5001H38.2337C37.6747 15.4996 37.1399 15.2721 36.7519 14.8689C36.1721 15.2791 35.4799 15.4996 34.77 15.5001H17.9694L17.5354 16.4043C17.6263 16.4573 17.7151 16.5143 17.8049 16.5688C18.0117 16.6919 18.2181 16.8074 18.4154 16.9396L18.4351 16.9553C18.7454 17.1621 19.0471 17.3912 19.3422 17.6258C19.4361 17.592 19.5345 17.5723 19.6339 17.5668H33.0671C33.9021 17.5683 34.7019 17.9058 35.2851 18.5032C35.8684 19.1011 36.1863 19.9084 36.1671 20.7434V21.6239C36.1863 22.4589 35.8684 23.2662 35.2851 23.8641C34.7019 24.4615 33.9021 24.799 33.0671 24.8H24.191C24.3898 25.4772 24.5386 26.1679 24.635 26.8667H31.0005C31.5711 26.8667 32.0338 27.3294 32.0338 27.9C32.0338 28.4712 31.5711 28.9333 31.0005 28.9333H24.8005V29.9667ZM23.077 22.0961C23.0946 22.1279 23.1163 22.1582 23.134 22.191C23.143 22.2087 23.142 22.2283 23.1501 22.247C23.2329 22.4059 23.3075 22.5714 23.3847 22.7334H33.0671C33.3532 22.7294 33.6256 22.6088 33.8204 22.3994C34.0157 22.19 34.1166 21.9095 34.1004 21.6239V20.7434C34.1166 20.4579 34.0157 20.1773 33.8204 19.9679C33.6256 19.7586 33.3532 19.6375 33.0671 19.6334H21.4079C21.9326 20.2651 22.4029 20.9397 22.8136 21.6506C22.9004 21.8035 22.9952 21.9433 23.077 22.0961ZM10.334 37.1999C13.9955 37.2055 17.2231 34.8003 18.265 31.2901C19.3069 27.7799 17.9139 24.0034 14.8421 22.0104L13.0177 25.8132C14.5273 27.1548 14.8073 29.4081 13.6726 31.0787C12.5373 32.7493 10.3395 33.3194 8.53572 32.4102C6.73245 31.5015 5.88228 29.396 6.5498 27.4898C7.21733 25.5836 9.19518 24.4681 11.172 24.8828L12.9844 21.1072C9.87935 20.0512 6.44334 20.9306 4.22785 23.3495C2.01185 25.7678 1.43565 29.2674 2.75859 32.2684C4.08204 35.2695 7.05385 37.2045 10.334 37.1999ZM10.334 26.8667C9.19265 26.8667 8.2673 27.792 8.2673 28.9333C8.2673 30.0751 9.19265 31 10.334 31C11.4753 31 12.4006 30.0751 12.4006 28.9333C12.3991 28.4848 12.2492 28.0489 11.9748 27.6937C11.7992 27.8253 11.5868 27.8975 11.3673 27.9C11.0943 27.9005 10.8319 27.791 10.6397 27.5973C10.4475 27.403 10.341 27.1402 10.343 26.8667H10.334Z" />
</svg>
