<svg width="29" height="19" viewBox="0 0 29 19" fill="none" xmlns="http://www.w3.org/2000/svg">
<path d="M28.7499 3.94766L26.2075 3.92676V18.5877H28.7499V3.94766Z" fill="#000"/>
<path d="M22.4915 7.3633L19.4414 3.91664H15.5326V1.85727H19.5885V0.162354H9.78179V1.85727H13.8377V3.91664H9.76862L7.7732 6.25364H3.76621V10.262H1.69491V6.86737H0V15.4817H1.69491V11.9569H3.76621V16.196H7.77823L9.82507 18.3625L19.4405 18.3568L22.518 14.9384H24.5127V7.36324H22.4915V7.3633ZM15.6264 15.3059H13.9315V13.4126H15.6264V15.3059ZM15.6264 11.8362H13.9315V6.69155H15.6264V11.8362Z" fill="#000"/>
</svg>
