<svg width="45" height="34" viewBox="0 0 45 34" fill="none" xmlns="http://www.w3.org/2000/svg">
<path fill-rule="evenodd" clip-rule="evenodd" d="M22.5 3.5C24.9262 3.5 27.3307 3.5914 29.7104 3.7709C32.9392 4.01446 35.4855 6.56075 35.7291 9.78963C35.8171 10.9565 35.884 12.1294 35.9292 13.3079L32.5607 9.93934C31.9749 9.35355 31.0251 9.35355 30.4393 9.93934C29.8536 10.5251 29.8536 11.4749 30.4393 12.0607L36.4393 18.0607C37.0251 18.6464 37.9749 18.6464 38.5607 18.0607L44.5607 12.0607C45.1464 11.4749 45.1464 10.5251 44.5607 9.93934C43.9749 9.35355 43.0251 9.35355 42.4393 9.93934L38.9363 13.4424C38.8897 12.143 38.8176 10.8501 38.7206 9.56398C38.3655 4.85623 34.6438 1.13451 29.936 0.779397C27.4813 0.594238 25.0015 0.5 22.5 0.5C19.9985 0.5 17.5187 0.594238 15.064 0.779397C10.3562 1.13451 6.6345 4.85623 6.2794 9.56398C6.24567 10.011 6.21497 10.459 6.18729 10.9077C6.13631 11.7345 6.76527 12.4462 7.59213 12.4972C8.41899 12.5481 9.13062 11.9192 9.18161 11.0923C9.20843 10.6573 9.23821 10.223 9.2709 9.78963C9.51446 6.56076 12.0608 4.01446 15.2896 3.7709C17.6693 3.5914 20.0738 3.5 22.5 3.5ZM8.56066 15.9393C7.97487 15.3536 7.02513 15.3536 6.43934 15.9393L0.439339 21.9393C-0.146446 22.5251 -0.146446 23.4749 0.439339 24.0607C1.02513 24.6464 1.97487 24.6464 2.56066 24.0607L6.06372 20.5576C6.11034 21.857 6.18239 23.15 6.2794 24.436C6.6345 29.1438 10.3562 32.8655 15.064 33.2206C17.5187 33.4058 19.9985 33.5 22.5 33.5C25.0015 33.5 27.4813 33.4058 29.936 33.2206C34.6438 32.8655 38.3655 29.1438 38.7206 24.436C38.7543 23.989 38.785 23.541 38.8127 23.0923C38.8637 22.2655 38.2347 21.5538 37.4079 21.5028C36.581 21.4519 35.8694 22.0808 35.8184 22.9077C35.7916 23.3427 35.7618 23.777 35.7291 24.2104C35.4855 27.4392 32.9392 29.9855 29.7104 30.2291C27.3307 30.4086 24.9262 30.5 22.5 30.5C20.0738 30.5 17.6693 30.4086 15.2896 30.2291C12.0608 29.9855 9.51446 27.4392 9.2709 24.2104C9.18288 23.0435 9.11604 21.8706 9.07078 20.6921L12.4393 24.0607C13.0251 24.6464 13.9749 24.6464 14.5607 24.0607C15.1464 23.4749 15.1464 22.5251 14.5607 21.9393L8.56066 15.9393Z" fill="#000"/>
</svg>
