<svg width="36" height="36" viewBox="0 0 36 36" fill="none" xmlns="http://www.w3.org/2000/svg">
    <path d="M7.5 5.25H4.5V8.25" stroke="white" stroke-width="2" stroke-linecap="round"/>
    <path d="M28.5 30.75L31.5 30.75L31.5 27.75" stroke="white" stroke-width="2" stroke-linecap="round"/>
    <path d="M31.5 8.25L31.5 5.25L28.5 5.25" stroke="white" stroke-width="2" stroke-linecap="round"/>
    <path d="M4.5 27.75L4.5 30.75L7.5 30.75" stroke="white" stroke-width="2" stroke-linecap="round"/>
    <path d="M25.5 20.25L25.5 9.75L10.5 9.75L10.5 20.25" stroke="white" stroke-width="2" stroke-linecap="round"/>
    <path d="M10.5 24.75L10.5 26.25L25.5 26.25L25.5 24.75" stroke="white" stroke-width="2" stroke-linecap="square"/>
    <path d="M4.5 20.25H31.5" stroke="white" stroke-width="2" stroke-linecap="round"/>
</svg>
