<svg width="26" height="26" viewBox="0 0 26 26" fill="none" xmlns="http://www.w3.org/2000/svg">
<path fill-rule="evenodd" clip-rule="evenodd" d="M25.8002 13C25.8002 20.0692 20.0694 25.7999 13.0002 25.7999C5.93095 25.7999 0.200195 20.0692 0.200195 13C0.200195 5.93071 5.93095 0.199951 13.0002 0.199951C20.0694 0.199951 25.8002 5.93071 25.8002 13ZM13.0002 4.99995C13.6629 4.99995 14.2002 5.53721 14.2002 6.19995V13.4C14.2002 14.0627 13.6629 14.6 13.0002 14.6C12.3375 14.6 11.8002 14.0627 11.8002 13.4V6.19995C11.8002 5.53721 12.3375 4.99995 13.0002 4.99995ZM13.0002 21C13.8838 21 14.6002 20.2836 14.6002 19.4C14.6002 18.5163 13.8838 17.7999 13.0002 17.7999C12.1165 17.7999 11.4002 18.5163 11.4002 19.4C11.4002 20.2836 12.1165 21 13.0002 21Z" fill="white"/>
</svg>
