<svg width="86" height="34" viewBox="0 0 86 34" fill="none" xmlns="http://www.w3.org/2000/svg">
<path d="M14.9278 33C14.6694 32.9988 14.4113 32.9839 14.1545 32.9553C12.481 32.7677 11.0273 32.0493 9.84078 30.811C9.35473 30.3084 8.9406 29.6843 8.5984 28.9664V28.9606C8.58584 28.948 8.57635 28.9328 8.5707 28.9159C8.53183 28.8056 8.49341 28.6899 8.45455 28.5791C8.32053 28.198 8.18382 27.8004 8.11235 27.3805C7.97945 26.6309 7.96258 25.8653 8.06231 25.1106C8.16954 24.1841 8.48293 23.2934 8.97947 22.5039C10.023 20.8509 11.4924 19.7917 13.3428 19.3499C14.2072 19.1399 15.1054 19.108 15.9825 19.2561C17.3965 19.4884 18.6281 20.0955 19.6391 21.0622C20.6054 21.9848 21.2518 23.0672 21.5663 24.2658C21.7928 25.1218 21.8648 25.9116 21.7817 26.6782C21.6548 27.8768 21.3014 28.9043 20.705 29.821C19.8433 31.1576 18.6393 32.0967 17.1369 32.6212C16.4276 32.8728 15.6804 33.0009 14.9278 33V33Z" stroke-linecap="round" stroke-linejoin="round"/>
<path d="M14.8393 31.6402C13.5438 31.6402 12.3595 31.2095 11.3154 30.3478C10.2607 29.4753 9.59773 28.3044 9.40474 26.9677C9.14518 25.1839 9.63123 23.6096 10.8517 22.2953C11.6085 21.4778 12.5748 20.9256 13.7292 20.6495C14.0276 20.5776 14.3421 20.5602 14.6405 20.5499C14.7839 20.5445 14.9278 20.5392 15.0658 20.528C15.0819 20.5232 15.0987 20.5213 15.1154 20.5222L15.2758 20.5445C15.7726 20.6053 16.2809 20.6714 16.767 20.8595C18.6942 21.6158 19.8875 22.9913 20.307 24.9409C20.6773 26.6309 20.3128 28.1829 19.2245 29.5526C18.3243 30.6792 17.1588 31.3587 15.7453 31.5687C15.4458 31.6173 15.1428 31.6413 14.8393 31.6402V31.6402Z" stroke-linecap="round" stroke-linejoin="round"/>
<path d="M14.9277 25.2114C15.0199 25.2184 15.1108 25.2369 15.1984 25.2664C15.401 25.342 15.5669 25.4922 15.6621 25.6863C15.744 25.8362 15.7733 26.0093 15.7452 26.1777C15.7196 26.3903 15.615 26.5855 15.4522 26.7245C15.3407 26.8224 15.2054 26.8891 15.0599 26.918C14.9064 26.9467 14.748 26.9333 14.6016 26.8791C14.4963 26.8424 14.3996 26.7849 14.3171 26.71C14.2346 26.6351 14.168 26.5443 14.1213 26.4431C14.0579 26.3107 14.0293 26.1643 14.0382 26.0178C14.0481 25.8374 14.116 25.6651 14.2317 25.5264C14.3476 25.3791 14.5118 25.2775 14.6954 25.2396C14.7731 25.2226 14.8504 25.2226 14.9277 25.2119" stroke-linecap="round" stroke-linejoin="round"/>
<path d="M18.7 22.2734L15.5076 25.4658" stroke-linecap="round" stroke-linejoin="round"/>
<path d="M14.276 26.6978L11.0947 29.879" stroke-linecap="round" stroke-linejoin="round"/>
<path d="M18.7441 29.929L15.491 26.6812" stroke-linecap="round" stroke-linejoin="round"/>
<path d="M14.2594 25.4433L11.0452 22.2344" stroke-linecap="round" stroke-linejoin="round"/>
<path d="M65.523 33C65.2647 32.9988 65.0065 32.9839 64.7497 32.9553C63.0762 32.7677 61.6226 32.0493 60.436 30.811C59.95 30.3084 59.5358 29.6843 59.1932 28.9664V28.9606C59.1809 28.9479 59.1716 28.9326 59.1659 28.9159C59.1271 28.8056 59.0882 28.6899 59.0498 28.5791C58.9158 28.198 58.7791 27.8004 58.7071 27.3805C58.5746 26.6308 58.5579 25.8653 58.6576 25.1106C58.7648 24.1842 59.078 23.2935 59.5743 22.5039C60.6183 20.8509 62.0876 19.7917 63.9376 19.3499C64.8022 19.1399 65.7005 19.108 66.5778 19.2561C67.9917 19.4884 69.2234 20.0955 70.2339 21.0622C71.2006 21.9848 71.8466 23.0672 72.1616 24.2658C72.3881 25.1218 72.46 25.9116 72.3769 26.6782C72.25 27.8768 71.8967 28.9043 71.2998 29.821C70.4385 31.1576 69.2345 32.0967 67.7322 32.6212C67.0229 32.8728 66.2756 33.0009 65.523 33Z" stroke-linecap="round" stroke-linejoin="round"/>
<path d="M65.4345 31.6402C64.1363 31.6402 62.9546 31.2095 61.9106 30.3478C60.8559 29.4753 60.1929 28.3044 59.9995 26.9677C59.7399 25.1839 60.226 23.6096 61.4465 22.2953C62.2032 21.4778 63.17 20.9256 64.3243 20.6495C64.6223 20.5776 64.9373 20.5602 65.2357 20.5499C65.3791 20.5445 65.5229 20.5392 65.661 20.528C65.6771 20.5232 65.6938 20.5213 65.7106 20.5222L65.8705 20.5445C66.3677 20.6053 66.8757 20.6714 67.3617 20.8595C69.2894 21.6158 70.4826 22.9913 70.9021 24.9409C71.2725 26.6309 70.9079 28.1829 69.8197 29.5526C68.9195 30.6792 67.754 31.3587 66.34 31.5687C66.0407 31.6174 65.7378 31.6413 65.4345 31.6402V31.6402Z" stroke-linecap="round" stroke-linejoin="round"/>
<path d="M65.5229 25.2114C65.6149 25.2184 65.7057 25.2369 65.7932 25.2664C65.9957 25.3421 66.1617 25.4923 66.2573 25.6863C66.3391 25.8363 66.3682 26.0093 66.34 26.1777C66.3174 26.3572 66.2392 26.525 66.1164 26.6578C65.9936 26.7905 65.8323 26.8815 65.6551 26.918C65.5016 26.9467 65.3432 26.9333 65.1968 26.8791C65.0915 26.8423 64.9947 26.7848 64.9122 26.7099C64.8296 26.635 64.7629 26.5443 64.7161 26.4431C64.653 26.3106 64.6245 26.1643 64.6334 26.0178C64.6433 25.8374 64.7112 25.6651 64.8269 25.5264C64.9428 25.3791 65.107 25.2775 65.2906 25.2396C65.3679 25.2226 65.4451 25.2226 65.5229 25.2119" stroke-linecap="round" stroke-linejoin="round"/>
<path d="M69.2952 22.2734L66.1028 25.4658" stroke-linecap="round" stroke-linejoin="round"/>
<path d="M64.8712 26.6978L61.6899 29.879" stroke-linecap="round" stroke-linejoin="round"/>
<path d="M69.3393 29.929L66.0862 26.6812" stroke-linecap="round" stroke-linejoin="round"/>
<path d="M64.8546 25.4433L61.6399 22.2344" stroke-linecap="round" stroke-linejoin="round"/>
<path d="M29.0366 10.0147C29.528 9.99554 30.5555 10.1528 30.8955 9.69444C31.2082 9.27987 30.8204 8.71473 31.5299 8.67676" stroke-linecap="round" stroke-linejoin="round"/>
<path d="M29.8275 10.8308L30.7822 10.7995C31.1516 10.7849 31.5002 10.6248 31.752 10.3541C32.0038 10.0835 32.1384 9.72426 32.1264 9.35479L32.1202 9.26097C32.1054 8.89163 31.9453 8.5431 31.6746 8.29132C31.404 8.03953 31.0449 7.90489 30.6754 7.91674L29.7207 7.94799C29.3514 7.96277 29.003 8.12293 28.7512 8.39356C28.4995 8.66418 28.365 9.02336 28.377 9.39276L28.3832 9.48702C28.3998 9.8556 28.5605 10.2029 28.8306 10.4542C29.1007 10.7056 29.4587 10.8408 29.8275 10.8308V10.8308Z" stroke-linecap="round" stroke-linejoin="round"/>
<path d="M29.8026 10.8315L29.8088 10.9445C29.8151 11.0888 29.8213 11.1142 29.7838 11.2398L27.1775 11.3341H27.1521C27.1062 11.2424 27.0825 11.1412 27.0828 11.0387L27.0703 10.6622C27.0591 10.3306 27.1797 10.0081 27.4058 9.76523C27.6319 9.52241 27.945 9.37907 28.2765 9.36661L28.3833 9.36035" stroke-linecap="round" stroke-linejoin="round"/>
<path d="M1.88306 23.0854H7.11705" stroke-linecap="round" stroke-linejoin="round"/>
<path d="M5.29507 14.136H2.98364C2.98364 14.136 3.51973 13.3091 4.30286 12.9321C5.08599 12.555 11.8389 11.1737 16.0467 10.6398C20.2546 10.106 20.4744 10.1167 20.4744 10.1167C20.4744 10.1167 21.1235 10.8386 22.3373 10.9119" stroke-linecap="round" stroke-linejoin="round"/>
<path d="M3.20163 14.1367C3.20163 14.1367 1.85159 15.602 1.88286 17.5176" stroke-linecap="round" stroke-linejoin="round"/>
<path d="M24.8057 22.5928C24.8057 22.5928 23.8426 18.071 24.2196 14.6798C24.5967 11.2886 26.1875 10.1163 26.1875 10.1163C26.1875 10.1163 29.987 6.30609 32.3422 4.67326C34.6974 3.04043 36.9266 3.13469 39.2189 2.97565C41.5111 2.81661 43.7407 2.75586 43.7407 2.75586L43.9918 23.0825L24.9313 23.4175L24.8057 22.5906V22.5928Z" stroke-linecap="round" stroke-linejoin="round"/>
<path d="M44.6511 3.38629L44.9026 10.703L59.1272 10.3456C59.1272 10.3456 58.7502 8.0632 58.2168 6.08504C57.6834 4.10688 57.3068 3.19775 57.3068 3.19775C57.3068 3.19775 49.8087 3.21697 44.6511 3.38629Z" stroke-linecap="round" stroke-linejoin="round"/>
<path d="M57.9973 2.50716C57.9973 2.50716 65.9417 2.47901 69.2998 2.49331C71.1761 2.5009 72.2036 2.50449 72.7397 2.50583C72.8986 2.50666 73.0531 2.5575 73.1814 2.65117C73.3097 2.74484 73.4053 2.87655 73.4545 3.02761L74.8639 5.4954C74.9695 5.81951 74.994 6.16459 74.9352 6.50037C74.8764 6.83614 74.7361 7.15235 74.5266 7.42129L74.3672 7.62546C74.0871 7.98285 71.278 9.25828 69.7917 9.91543C69.1964 10.1786 68.556 10.3245 67.9055 10.3452L60.2525 10.5882" stroke-linecap="round" stroke-linejoin="round"/>
<path d="M29.8278 10.8315L30.7825 10.8002C31.1518 10.7856 31.5004 10.6255 31.7523 10.3548C32.0041 10.0842 32.1387 9.72495 32.1267 9.35548L32.1204 9.26166C32.1057 8.89232 31.9455 8.54379 31.6749 8.29201C31.4043 8.04022 31.0451 7.90558 30.6757 7.91743L29.721 7.94869C29.6166 7.95162 29.5128 7.96661 29.4119 7.99336V7.99336L33.1591 5.01808C33.1591 5.01808 34.2898 4.01337 37.3357 3.73058C40.3815 3.4478 42.768 3.38525 42.768 3.38525L42.391 10.8306L29.8139 11.259L29.8278 10.8315Z" stroke-linecap="round" stroke-linejoin="round"/>
<path d="M33.2428 3.19775C33.2428 3.19775 32.7612 3.25003 31.2119 4.46426C29.6626 5.6785 24.9316 10.1169 24.9316 10.1169H26.1879C26.1879 10.1169 29.9874 6.30661 32.3426 4.67378C32.7807 4.3677 33.2472 4.10427 33.7355 3.88708L33.2428 3.19775Z" stroke-linecap="round" stroke-linejoin="round"/>
<path d="M81.7678 17.5796H83.2751L84.06 19.8093H84.7011C84.7453 19.8092 84.789 19.8189 84.829 19.8378C84.869 19.8567 84.9043 19.8843 84.9324 19.9185C84.9604 19.9527 84.9805 19.9927 84.9912 20.0356C85.0019 20.0785 85.0029 20.1233 84.9942 20.1667L84.5765 22.2788C84.5448 22.4383 84.4645 22.584 84.3467 22.696C84.2289 22.808 84.0793 22.8807 83.9184 22.9043L77.8428 23.7977V17.5796H81.7678Z" stroke-linecap="round" stroke-linejoin="round"/>
<path d="M83.2751 17.5798C83.2751 17.5798 83.2121 15.3818 83.2751 14.3141C83.3381 13.2464 83.2751 11.237 83.2751 11.237L82.8985 10.8912C82.8985 10.8912 80.9516 5.99274 78.8475 3.60627C77.8008 2.41884 77.2204 1.76793 76.9015 1.41367C76.7844 1.28342 76.6413 1.17927 76.4813 1.108C76.3214 1.03672 76.1482 0.999928 75.9731 1L50.7641 1C40.004 1 35.3637 1.65938 34.0623 1.95244C32.761 2.2455 31.4212 2.62256 28.7015 4.59044C25.9817 6.55833 20.7393 10.3475 20.7393 10.3475" stroke-linecap="round" stroke-linejoin="round"/>
<path d="M32.1272 2.54992L33.244 3.19769C33.244 3.19769 34.5628 2.24525 45.532 1.78466C56.5013 1.32407 72.4119 1.56487 72.4119 1.56487" stroke-linecap="round" stroke-linejoin="round"/>
<path d="M76.9111 2.35054L77.466 2.0459" stroke-linecap="round" stroke-linejoin="round"/>
<path d="M81.0142 9.13232L81.6633 10.8313L82.8985 10.8907" stroke-linecap="round" stroke-linejoin="round"/>
<path d="M81.6631 10.8315C81.6631 10.8315 82.0205 12.681 82.0205 14.5649H83.3049" stroke-linecap="round" stroke-linejoin="round"/>
<path d="M9.29376 18.7734C9.90401 18.1632 10.6885 17.6517 11.5721 17.2769H7.93165C7.66981 17.4899 7.34748 17.6149 7.01048 17.6342C6.58876 17.6508 2.94069 17.6418 1.31635 17.6369C1.21878 17.6367 1.12227 17.657 1.03308 17.6965C0.943884 17.7361 0.864013 17.7939 0.798656 17.8664C0.7333 17.9388 0.683922 18.0242 0.653736 18.117C0.623551 18.2098 0.613233 18.3078 0.623454 18.4049L1.00229 21.9676C1.00229 21.9676 1.23281 22.7633 1.50487 22.9308C1.77694 23.0983 1.88147 23.0876 1.88147 23.0876C1.7613 23.1853 1.67976 23.3226 1.6514 23.4749C1.59913 23.7367 1.99673 24.4801 2.12226 24.5949C2.20804 24.6735 5.70377 25.1421 6.89209 25.2994C6.94192 25.306 6.99257 25.3022 7.04087 25.2883C7.08917 25.2744 7.13407 25.2506 7.17275 25.2186C7.21143 25.1865 7.24306 25.1467 7.26564 25.1018C7.28822 25.0569 7.30128 25.0078 7.30399 24.9576L7.37323 23.6795C7.3766 23.6056 7.36474 23.5317 7.33838 23.4626C7.31202 23.3934 7.27173 23.3304 7.22 23.2774C7.15745 23.2127 7.10385 23.1398 7.11502 23.0894C7.45543 21.5946 8.09605 19.9702 9.29376 18.7734Z" stroke-linecap="round" stroke-linejoin="round"/>
<path d="M26.1878 10.1167H24.9316C24.9316 10.1167 24.7225 10.2002 24.1779 10.5353C23.6333 10.8703 22.3356 10.9119 22.3356 10.9119C22.2349 11.073 22.1231 11.2269 22.001 11.3725C21.7914 11.6235 21.1633 11.7495 21.1633 11.7495C21.1633 11.7495 18.4002 11.7495 14.0459 12.0841C9.69152 12.4187 5.92328 13.3823 5.67221 13.5499C5.42115 13.7174 5.29517 14.136 5.29517 14.136C5.29517 14.136 6.04882 14.094 6.84446 14.136C7.07177 14.1447 7.29398 14.2059 7.4937 14.3148C7.69343 14.4237 7.86524 14.5773 7.9957 14.7637C7.9957 14.7637 8.47729 15.9779 8.35309 16.4385C8.26328 16.7399 8.12163 17.0234 7.9345 17.2761H11.575C14.7915 15.9149 19.3348 16.3634 21.6985 20.4998C22.0837 21.1745 22.4239 21.8738 22.7171 22.5932H24.806C24.806 22.5932 23.8429 18.0713 24.2199 14.6801C24.597 11.2889 26.1878 10.1167 26.1878 10.1167Z" stroke-linecap="round" stroke-linejoin="round"/>
<path d="M57.15 22.7649L24.9312 23.4212L24.8056 22.5942H22.7153C23.2138 23.8179 23.5779 25.092 23.8014 26.3942L26.6493 26.7391L56.3065 26.1404C56.4553 26.1375 56.5972 26.0768 56.7019 25.971C56.8067 25.8653 56.8661 25.7228 56.8676 25.574C56.877 24.631 56.9715 23.6908 57.15 22.7649Z" stroke-linecap="round" stroke-linejoin="round"/>
<path d="M5.86057 14.6382H5.37854C5.30561 14.638 5.23342 14.6526 5.16636 14.6813C5.0993 14.7099 5.03879 14.752 4.98854 14.8048C4.76465 15.044 4.59759 15.3306 4.4998 15.6433C4.41357 15.9242 4.36946 16.2162 4.36891 16.51C4.3685 16.561 4.37818 16.6115 4.39739 16.6587C4.4166 16.7059 4.44497 16.7488 4.48085 16.785C4.51673 16.8211 4.55942 16.8498 4.60646 16.8694C4.65349 16.889 4.70394 16.8991 4.75489 16.8991H5.295" stroke-linecap="round" stroke-linejoin="round"/>
<path d="M4.36862 14.6382H3.88659C3.81367 14.638 3.74147 14.6526 3.67441 14.6813C3.60735 14.7099 3.54685 14.752 3.49659 14.8048C3.2727 15.044 3.10565 15.3306 3.00786 15.6433C2.92163 15.9242 2.87752 16.2162 2.87696 16.51C2.87661 16.561 2.88633 16.6114 2.90556 16.6586C2.9248 16.7058 2.95316 16.7487 2.98904 16.7848C3.02491 16.821 3.06757 16.8497 3.11458 16.8693C3.16159 16.8889 3.21201 16.8991 3.26295 16.8991H3.8035" stroke-linecap="round" stroke-linejoin="round"/>
<path d="M82.0186 14.5637H78.8468C78.8468 14.5637 78.6583 12.2715 78.9411 11.2578C79.2239 10.2442 79.9145 9.50976 79.9145 9.50976L81.0135 9.13271C81.0135 9.13271 80.5109 8.09671 79.2238 5.71023C78.2513 3.90809 77.0286 2.4638 76.488 1.86472C76.4028 1.77026 76.2986 1.69476 76.1824 1.64312C76.0661 1.59148 75.9402 1.56484 75.813 1.56494L72.4097 1.56494L72.064 2.48926V2.50355L72.7421 2.50578C72.901 2.5066 73.0555 2.55747 73.1839 2.65114C73.3122 2.74481 73.4077 2.87652 73.4569 3.02757L74.8637 5.49491C74.9693 5.81903 74.9938 6.1641 74.935 6.49988C74.8762 6.83565 74.7359 7.15186 74.5264 7.4208L74.3669 7.62497C74.0801 7.99264 71.1455 9.31766 69.69 9.96007C69.1611 10.1933 68.5924 10.3228 68.0147 10.3416L60.2522 10.5877C60.5408 11.919 60.7914 13.0895 60.7914 13.0895V17.0109C63.9985 15.1498 69.2196 15.2481 71.8133 19.7874C72.6538 21.2622 73.2803 22.8489 73.674 24.5001L77.8425 23.7973V17.9245C77.8425 17.8329 77.8789 17.7451 77.9437 17.6803C78.0084 17.6156 78.0963 17.5792 78.1879 17.5792H81.7676C81.8774 17.2087 81.9612 16.8311 82.0186 16.449C82.1129 15.8208 82.0186 14.5637 82.0186 14.5637Z" stroke-linecap="round" stroke-linejoin="round"/>
<path d="M43.7409 2.75879C43.7409 2.75879 41.5113 2.82178 39.219 2.97858C36.9268 3.13539 34.6972 3.04157 32.3424 4.67619C29.9876 6.31081 26.1877 10.1175 26.1877 10.1175C26.1877 10.1175 24.5964 11.2897 24.222 14.6809C23.8477 18.0721 24.8059 22.594 24.8059 22.594L24.9314 23.4209L43.992 23.0859L43.7409 2.75879ZM42.3904 10.8323L29.8139 11.2589L29.8277 10.8318L30.7824 10.8005C31.1518 10.7859 31.5004 10.6258 31.7522 10.3551C32.004 10.0845 32.1386 9.72525 32.1266 9.35578L32.1204 9.26196C32.1056 8.89262 31.9454 8.54409 31.6748 8.29231C31.4042 8.04052 31.0451 7.90588 30.6756 7.91773L29.7209 7.94901C29.6167 7.95216 29.5131 7.96715 29.4122 7.99368V7.99368L33.1586 5.01929C33.1586 5.01929 34.2893 4.01456 37.3351 3.73178C40.381 3.44899 42.7675 3.38645 42.7675 3.38645L42.3904 10.8323Z" stroke-linecap="round" stroke-linejoin="round"/>
<path d="M59.7554 8.31662C59.033 5.05051 57.9971 2.50902 57.9971 2.50902C57.9971 2.50902 55.3903 2.47774 51.7168 2.50902C48.0433 2.54029 43.7407 2.76009 43.7407 2.76009L43.9918 23.0867C43.9918 23.0867 46.0329 23.0134 48.7965 22.9527C51.2906 22.8959 56.215 22.7878 57.1505 22.7677C57.4632 21.1747 58.1074 19.3667 59.4105 18.0636C59.8235 17.6546 60.2876 17.3008 60.7914 17.0111V13.09C60.7914 13.09 60.1682 10.1835 59.7554 8.31662ZM44.9027 10.7031L44.6512 3.38642C49.8088 3.2171 57.3068 3.19788 57.3068 3.19788C57.3068 3.19788 57.6839 4.1088 58.2177 6.08696C58.7516 8.06512 59.1282 10.3475 59.1282 10.3475L44.9027 10.7031Z" stroke-linecap="round" stroke-linejoin="round"/>
<path d="M37.1172 12.759L37.1234 13.048C37.1273 13.2477 37.2101 13.4378 37.3536 13.5766C37.4972 13.7155 37.6899 13.7919 37.8896 13.7892L41.4063 13.7199C41.6057 13.716 41.7955 13.6335 41.9343 13.4904C42.0731 13.3472 42.1497 13.155 42.1475 12.9556L42.1412 12.6665" stroke-linecap="round" stroke-linejoin="round"/>
<path d="M37.9899 13.2688L41.268 13.2058C41.391 13.2024 41.5078 13.1509 41.5935 13.0626C41.6791 12.9742 41.7268 12.8558 41.7264 12.7328C41.7229 12.6101 41.6718 12.4937 41.5839 12.4081C41.496 12.3225 41.3782 12.2746 41.2555 12.2744L37.9774 12.337C37.8546 12.3404 37.7381 12.3916 37.6524 12.4796C37.5667 12.5676 37.5187 12.6855 37.5186 12.8083C37.5185 12.8697 37.5307 12.9305 37.5545 12.9871C37.5783 13.0437 37.6132 13.095 37.6571 13.1379C37.701 13.1808 37.7531 13.2146 37.8102 13.237C37.8674 13.2595 37.9285 13.2703 37.9899 13.2688V13.2688Z" stroke-linecap="round" stroke-linejoin="round"/>
<path d="M41.3249 12.6846L37.8958 12.7476" stroke-linecap="round" stroke-linejoin="round"/>
<path d="M54.0854 12.5708L54.0921 12.8594C54.096 13.0591 54.1788 13.2492 54.3223 13.388C54.4659 13.5269 54.6586 13.6033 54.8583 13.6006L58.375 13.5313C58.5747 13.5275 58.7648 13.4447 58.9036 13.3011C59.0425 13.1576 59.1189 12.9649 59.1162 12.7652L59.1099 12.4766" stroke-linecap="round" stroke-linejoin="round"/>
<path d="M54.9589 13.0791L58.237 13.0166C58.3597 13.0131 58.4762 12.9619 58.5618 12.8739C58.6474 12.7859 58.6953 12.668 58.6954 12.5453C58.6919 12.4226 58.6408 12.3062 58.5529 12.2206C58.465 12.1351 58.3472 12.0871 58.2245 12.0869L54.9459 12.1512C54.8233 12.1547 54.7068 12.2058 54.6213 12.2937C54.5357 12.3817 54.4877 12.4994 54.4875 12.6221V12.6221C54.4879 12.6832 54.5005 12.7436 54.5245 12.7998C54.5485 12.856 54.5835 12.9069 54.6274 12.9495C54.6712 12.992 54.7231 13.0254 54.7801 13.0476C54.837 13.0699 54.8978 13.0806 54.9589 13.0791Z" stroke-linecap="round" stroke-linejoin="round"/>
<path d="M58.2935 12.4961L54.8647 12.5587" stroke-linecap="round" stroke-linejoin="round"/>
<path d="M6.88647 20.5231C6.88647 20.5231 8.26824 15.0371 15.0511 15.0371C21.8339 15.0371 24.0944 21.5684 24.0944 21.5684" stroke-linecap="round" stroke-linejoin="round"/>
<path d="M56.8833 19.7691C56.8833 19.7691 58.2651 14.2832 65.0475 14.2832C71.8298 14.2832 74.0912 20.8145 74.0912 20.8145" stroke-linecap="round" stroke-linejoin="round"/>
</svg>
