<svg width="62" height="62" viewBox="0 0 62 62" fill="none" xmlns="http://www.w3.org/2000/svg">
<path d="M41 23.5C41 29.0228 36.5228 33.5 31 33.5C25.4772 33.5 21 29.0228 21 23.5C21 17.9772 25.4772 13.5 31 13.5C36.5228 13.5 41 17.9772 41 23.5Z" fill="#1E1F24"/>
<path d="M50.9385 53.416C46.3737 47.3916 39.1413 43.5 31 43.5C22.8587 43.5 15.6263 47.3916 11.0615 53.416C16.3617 58.1337 23.3461 61 31 61C38.6539 61 45.6383 58.1337 50.9385 53.416Z" fill="#1E1F24"/>
<path d="M50.9385 53.416C46.3737 47.3916 39.1413 43.5 31 43.5C22.8587 43.5 15.6263 47.3916 11.0615 53.416M50.9385 53.416C57.1117 47.9211 61 39.9147 61 31C61 14.4315 47.5685 1 31 1C14.4315 1 1 14.4315 1 31C1 39.9147 4.88834 47.9211 11.0615 53.416M50.9385 53.416C45.6383 58.1337 38.6539 61 31 61C23.3461 61 16.3617 58.1337 11.0615 53.416M41 23.5C41 29.0228 36.5228 33.5 31 33.5C25.4772 33.5 21 29.0228 21 23.5C21 17.9772 25.4772 13.5 31 13.5C36.5228 13.5 41 17.9772 41 23.5Z" stroke="#1E1F24" stroke-width="1.5" stroke-linecap="round" stroke-linejoin="round"/>
</svg>
